%YAML 1.1
%TAG !u! tag:unity3d.com,2011:
--- !u!74 &7400000
AnimationClip:
  m_ObjectHideFlags: 0
  m_CorrespondingSourceObject: {fileID: 0}
  m_PrefabInstance: {fileID: 0}
  m_PrefabAsset: {fileID: 0}
  m_Name: manzanaAnimacion
  serializedVersion: 6
  m_Legacy: 0
  m_Compressed: 0
  m_UseHighQualityCurve: 1
  m_RotationCurves: []
  m_CompressedRotationCurves: []
  m_EulerCurves: []
  m_PositionCurves: []
  m_ScaleCurves: []
  m_FloatCurves: []
  m_PPtrCurves:
  - curve:
    - time: 0
      value: {fileID: 7293598183456022363, guid: 1ddc9afd21fec77489b1248d18f31b68,
        type: 3}
    - time: 0.083333336
      value: {fileID: 3211865404380153573, guid: 1ddc9afd21fec77489b1248d18f31b68,
        type: 3}
    - time: 0.16666667
      value: {fileID: 4808522734667448011, guid: 1ddc9afd21fec77489b1248d18f31b68,
        type: 3}
    - time: 0.25
      value: {fileID: -8577097333041121892, guid: 1ddc9afd21fec77489b1248d18f31b68,
        type: 3}
    - time: 0.33333334
      value: {fileID: 1419576285154770477, guid: 1ddc9afd21fec77489b1248d18f31b68,
        type: 3}
    - time: 0.41666666
      value: {fileID: -7706788487438311687, guid: 1ddc9afd21fec77489b1248d18f31b68,
        type: 3}
    - time: 0.5
      value: {fileID: 8638710384840876012, guid: 1ddc9afd21fec77489b1248d18f31b68,
        type: 3}
    - time: 0.5833333
      value: {fileID: -4689406079702324653, guid: 1ddc9afd21fec77489b1248d18f31b68,
        type: 3}
    - time: 0.6666667
      value: {fileID: -4804661220611782958, guid: 1ddc9afd21fec77489b1248d18f31b68,
        type: 3}
    - time: 0.75
      value: {fileID: 542562350195365616, guid: 1ddc9afd21fec77489b1248d18f31b68,
        type: 3}
    - time: 0.8333333
      value: {fileID: 1535906679059638393, guid: 1ddc9afd21fec77489b1248d18f31b68,
        type: 3}
    - time: 0.9166667
      value: {fileID: -6207369124864647917, guid: 1ddc9afd21fec77489b1248d18f31b68,
        type: 3}
    - time: 1
      value: {fileID: 7209791866757004406, guid: 1ddc9afd21fec77489b1248d18f31b68,
        type: 3}
    - time: 1.0833334
      value: {fileID: -1462588236305530756, guid: 1ddc9afd21fec77489b1248d18f31b68,
        type: 3}
    - time: 1.1666666
      value: {fileID: 4023135878370671054, guid: 1ddc9afd21fec77489b1248d18f31b68,
        type: 3}
    - time: 1.25
      value: {fileID: -337911150936919937, guid: 1ddc9afd21fec77489b1248d18f31b68,
        type: 3}
    - time: 1.3333334
      value: {fileID: 9139289913481491577, guid: 1ddc9afd21fec77489b1248d18f31b68,
        type: 3}
    attribute: m_Sprite
    path: 
    classID: 212
    script: {fileID: 0}
  m_SampleRate: 12
  m_WrapMode: 0
  m_Bounds:
    m_Center: {x: 0, y: 0, z: 0}
    m_Extent: {x: 0, y: 0, z: 0}
  m_ClipBindingConstant:
    genericBindings:
    - serializedVersion: 2
      path: 0
      attribute: 0
      script: {fileID: 0}
      typeID: 212
      customType: 23
      isPPtrCurve: 1
    pptrCurveMapping:
    - {fileID: 7293598183456022363, guid: 1ddc9afd21fec77489b1248d18f31b68, type: 3}
    - {fileID: 3211865404380153573, guid: 1ddc9afd21fec77489b1248d18f31b68, type: 3}
    - {fileID: 4808522734667448011, guid: 1ddc9afd21fec77489b1248d18f31b68, type: 3}
    - {fileID: -8577097333041121892, guid: 1ddc9afd21fec77489b1248d18f31b68, type: 3}
    - {fileID: 1419576285154770477, guid: 1ddc9afd21fec77489b1248d18f31b68, type: 3}
    - {fileID: -7706788487438311687, guid: 1ddc9afd21fec77489b1248d18f31b68, type: 3}
    - {fileID: 8638710384840876012, guid: 1ddc9afd21fec77489b1248d18f31b68, type: 3}
    - {fileID: -4689406079702324653, guid: 1ddc9afd21fec77489b1248d18f31b68, type: 3}
    - {fileID: -4804661220611782958, guid: 1ddc9afd21fec77489b1248d18f31b68, type: 3}
    - {fileID: 542562350195365616, guid: 1ddc9afd21fec77489b1248d18f31b68, type: 3}
    - {fileID: 1535906679059638393, guid: 1ddc9afd21fec77489b1248d18f31b68, type: 3}
    - {fileID: -6207369124864647917, guid: 1ddc9afd21fec77489b1248d18f31b68, type: 3}
    - {fileID: 7209791866757004406, guid: 1ddc9afd21fec77489b1248d18f31b68, type: 3}
    - {fileID: -1462588236305530756, guid: 1ddc9afd21fec77489b1248d18f31b68, type: 3}
    - {fileID: 4023135878370671054, guid: 1ddc9afd21fec77489b1248d18f31b68, type: 3}
    - {fileID: -337911150936919937, guid: 1ddc9afd21fec77489b1248d18f31b68, type: 3}
    - {fileID: 9139289913481491577, guid: 1ddc9afd21fec77489b1248d18f31b68, type: 3}
  m_AnimationClipSettings:
    serializedVersion: 2
    m_AdditiveReferencePoseClip: {fileID: 0}
    m_AdditiveReferencePoseTime: 0
    m_StartTime: 0
    m_StopTime: 1.4166667
    m_OrientationOffsetY: 0
    m_Level: 0
    m_CycleOffset: 0
    m_HasAdditiveReferencePose: 0
    m_LoopTime: 1
    m_LoopBlend: 0
    m_LoopBlendOrientation: 0
    m_LoopBlendPositionY: 0
    m_LoopBlendPositionXZ: 0
    m_KeepOriginalOrientation: 0
    m_KeepOriginalPositionY: 1
    m_KeepOriginalPositionXZ: 0
    m_HeightFromFeet: 0
    m_Mirror: 0
  m_EditorCurves: []
  m_EulerEditorCurves: []
  m_HasGenericRootTransform: 0
  m_HasMotionFloatCurves: 0
  m_Events: []
