%YAML 1.1
%TAG !u! tag:unity3d.com,2011:
--- !u!1 &8558769961759021310
GameObject:
  m_ObjectHideFlags: 0
  m_CorrespondingSourceObject: {fileID: 0}
  m_PrefabInstance: {fileID: 0}
  m_PrefabAsset: {fileID: 0}
  serializedVersion: 6
  m_Component:
  - component: {fileID: 504237151904704157}
  - component: {fileID: 6992974126898071004}
  m_Layer: 31
  m_Name: Paleta1
  m_TagString: Untagged
  m_Icon: {fileID: 0}
  m_NavMeshLayer: 0
  m_StaticEditorFlags: 0
  m_IsActive: 1
--- !u!4 &504237151904704157
Transform:
  m_ObjectHideFlags: 0
  m_CorrespondingSourceObject: {fileID: 0}
  m_PrefabInstance: {fileID: 0}
  m_PrefabAsset: {fileID: 0}
  m_GameObject: {fileID: 8558769961759021310}
  m_LocalRotation: {x: 0, y: 0, z: 0, w: 1}
  m_LocalPosition: {x: 0, y: 0, z: 0}
  m_LocalScale: {x: 1, y: 1, z: 1}
  m_Children:
  - {fileID: 8443280410356009616}
  m_Father: {fileID: 0}
  m_RootOrder: 0
  m_LocalEulerAnglesHint: {x: 0, y: 0, z: 0}
--- !u!156049354 &6992974126898071004
Grid:
  m_ObjectHideFlags: 0
  m_CorrespondingSourceObject: {fileID: 0}
  m_PrefabInstance: {fileID: 0}
  m_PrefabAsset: {fileID: 0}
  m_GameObject: {fileID: 8558769961759021310}
  m_Enabled: 1
  m_CellSize: {x: 1, y: 1, z: 0}
  m_CellGap: {x: 0, y: 0, z: 0}
  m_CellLayout: 0
  m_CellSwizzle: 0
--- !u!1 &8686101424266189819
GameObject:
  m_ObjectHideFlags: 0
  m_CorrespondingSourceObject: {fileID: 0}
  m_PrefabInstance: {fileID: 0}
  m_PrefabAsset: {fileID: 0}
  serializedVersion: 6
  m_Component:
  - component: {fileID: 8443280410356009616}
  - component: {fileID: 6862189040284898764}
  - component: {fileID: 1047405867142313245}
  m_Layer: 31
  m_Name: Layer1
  m_TagString: Untagged
  m_Icon: {fileID: 0}
  m_NavMeshLayer: 0
  m_StaticEditorFlags: 0
  m_IsActive: 1
--- !u!4 &8443280410356009616
Transform:
  m_ObjectHideFlags: 0
  m_CorrespondingSourceObject: {fileID: 0}
  m_PrefabInstance: {fileID: 0}
  m_PrefabAsset: {fileID: 0}
  m_GameObject: {fileID: 8686101424266189819}
  m_LocalRotation: {x: -0, y: -0, z: -0, w: 1}
  m_LocalPosition: {x: 0, y: 0, z: 0}
  m_LocalScale: {x: 1, y: 1, z: 1}
  m_Children: []
  m_Father: {fileID: 504237151904704157}
  m_RootOrder: 0
  m_LocalEulerAnglesHint: {x: 0, y: 0, z: 0}
--- !u!1839735485 &6862189040284898764
Tilemap:
  m_ObjectHideFlags: 0
  m_CorrespondingSourceObject: {fileID: 0}
  m_PrefabInstance: {fileID: 0}
  m_PrefabAsset: {fileID: 0}
  m_GameObject: {fileID: 8686101424266189819}
  m_Enabled: 1
  m_Tiles:
  - first: {x: -5, y: -8, z: 0}
    second:
      serializedVersion: 2
      m_TileIndex: 132
      m_TileSpriteIndex: 132
      m_TileMatrixIndex: 0
      m_TileColorIndex: 0
      m_TileObjectToInstantiateIndex: 65535
      m_AllTileFlags: 1073741825
  - first: {x: -4, y: -8, z: 0}
    second:
      serializedVersion: 2
      m_TileIndex: 133
      m_TileSpriteIndex: 133
      m_TileMatrixIndex: 0
      m_TileColorIndex: 0
      m_TileObjectToInstantiateIndex: 65535
      m_AllTileFlags: 1073741825
  - first: {x: -3, y: -8, z: 0}
    second:
      serializedVersion: 2
      m_TileIndex: 134
      m_TileSpriteIndex: 134
      m_TileMatrixIndex: 0
      m_TileColorIndex: 0
      m_TileObjectToInstantiateIndex: 65535
      m_AllTileFlags: 1073741825
  - first: {x: 1, y: -8, z: 0}
    second:
      serializedVersion: 2
      m_TileIndex: 135
      m_TileSpriteIndex: 135
      m_TileMatrixIndex: 0
      m_TileColorIndex: 0
      m_TileObjectToInstantiateIndex: 65535
      m_AllTileFlags: 1073741825
  - first: {x: 2, y: -8, z: 0}
    second:
      serializedVersion: 2
      m_TileIndex: 136
      m_TileSpriteIndex: 136
      m_TileMatrixIndex: 0
      m_TileColorIndex: 0
      m_TileObjectToInstantiateIndex: 65535
      m_AllTileFlags: 1073741825
  - first: {x: 3, y: -8, z: 0}
    second:
      serializedVersion: 2
      m_TileIndex: 137
      m_TileSpriteIndex: 137
      m_TileMatrixIndex: 0
      m_TileColorIndex: 0
      m_TileObjectToInstantiateIndex: 65535
      m_AllTileFlags: 1073741825
  - first: {x: 8, y: -8, z: 0}
    second:
      serializedVersion: 2
      m_TileIndex: 138
      m_TileSpriteIndex: 138
      m_TileMatrixIndex: 0
      m_TileColorIndex: 0
      m_TileObjectToInstantiateIndex: 65535
      m_AllTileFlags: 1073741825
  - first: {x: 9, y: -8, z: 0}
    second:
      serializedVersion: 2
      m_TileIndex: 139
      m_TileSpriteIndex: 139
      m_TileMatrixIndex: 0
      m_TileColorIndex: 0
      m_TileObjectToInstantiateIndex: 65535
      m_AllTileFlags: 1073741825
  - first: {x: 10, y: -8, z: 0}
    second:
      serializedVersion: 2
      m_TileIndex: 140
      m_TileSpriteIndex: 140
      m_TileMatrixIndex: 0
      m_TileColorIndex: 0
      m_TileObjectToInstantiateIndex: 65535
      m_AllTileFlags: 1073741825
  - first: {x: 13, y: -8, z: 0}
    second:
      serializedVersion: 2
      m_TileIndex: 141
      m_TileSpriteIndex: 141
      m_TileMatrixIndex: 0
      m_TileColorIndex: 0
      m_TileObjectToInstantiateIndex: 65535
      m_AllTileFlags: 1073741825
  - first: {x: 14, y: -8, z: 0}
    second:
      serializedVersion: 2
      m_TileIndex: 142
      m_TileSpriteIndex: 142
      m_TileMatrixIndex: 0
      m_TileColorIndex: 0
      m_TileObjectToInstantiateIndex: 65535
      m_AllTileFlags: 1073741825
  - first: {x: 15, y: -8, z: 0}
    second:
      serializedVersion: 2
      m_TileIndex: 143
      m_TileSpriteIndex: 143
      m_TileMatrixIndex: 0
      m_TileColorIndex: 0
      m_TileObjectToInstantiateIndex: 65535
      m_AllTileFlags: 1073741825
  - first: {x: -5, y: -7, z: 0}
    second:
      serializedVersion: 2
      m_TileIndex: 114
      m_TileSpriteIndex: 114
      m_TileMatrixIndex: 0
      m_TileColorIndex: 0
      m_TileObjectToInstantiateIndex: 65535
      m_AllTileFlags: 1073741825
  - first: {x: -4, y: -7, z: 0}
    second:
      serializedVersion: 2
      m_TileIndex: 115
      m_TileSpriteIndex: 115
      m_TileMatrixIndex: 0
      m_TileColorIndex: 0
      m_TileObjectToInstantiateIndex: 65535
      m_AllTileFlags: 1073741825
  - first: {x: -3, y: -7, z: 0}
    second:
      serializedVersion: 2
      m_TileIndex: 116
      m_TileSpriteIndex: 116
      m_TileMatrixIndex: 0
      m_TileColorIndex: 0
      m_TileObjectToInstantiateIndex: 65535
      m_AllTileFlags: 1073741825
  - first: {x: -2, y: -7, z: 0}
    second:
      serializedVersion: 2
      m_TileIndex: 117
      m_TileSpriteIndex: 117
      m_TileMatrixIndex: 0
      m_TileColorIndex: 0
      m_TileObjectToInstantiateIndex: 65535
      m_AllTileFlags: 1073741825
  - first: {x: -1, y: -7, z: 0}
    second:
      serializedVersion: 2
      m_TileIndex: 118
      m_TileSpriteIndex: 118
      m_TileMatrixIndex: 0
      m_TileColorIndex: 0
      m_TileObjectToInstantiateIndex: 65535
      m_AllTileFlags: 1073741825
  - first: {x: 1, y: -7, z: 0}
    second:
      serializedVersion: 2
      m_TileIndex: 119
      m_TileSpriteIndex: 119
      m_TileMatrixIndex: 0
      m_TileColorIndex: 0
      m_TileObjectToInstantiateIndex: 65535
      m_AllTileFlags: 1073741825
  - first: {x: 2, y: -7, z: 0}
    second:
      serializedVersion: 2
      m_TileIndex: 120
      m_TileSpriteIndex: 120
      m_TileMatrixIndex: 0
      m_TileColorIndex: 0
      m_TileObjectToInstantiateIndex: 65535
      m_AllTileFlags: 1073741825
  - first: {x: 3, y: -7, z: 0}
    second:
      serializedVersion: 2
      m_TileIndex: 121
      m_TileSpriteIndex: 121
      m_TileMatrixIndex: 0
      m_TileColorIndex: 0
      m_TileObjectToInstantiateIndex: 65535
      m_AllTileFlags: 1073741825
  - first: {x: 4, y: -7, z: 0}
    second:
      serializedVersion: 2
      m_TileIndex: 122
      m_TileSpriteIndex: 122
      m_TileMatrixIndex: 0
      m_TileColorIndex: 0
      m_TileObjectToInstantiateIndex: 65535
      m_AllTileFlags: 1073741825
  - first: {x: 5, y: -7, z: 0}
    second:
      serializedVersion: 2
      m_TileIndex: 123
      m_TileSpriteIndex: 123
      m_TileMatrixIndex: 0
      m_TileColorIndex: 0
      m_TileObjectToInstantiateIndex: 65535
      m_AllTileFlags: 1073741825
  - first: {x: 7, y: -7, z: 0}
    second:
      serializedVersion: 2
      m_TileIndex: 124
      m_TileSpriteIndex: 124
      m_TileMatrixIndex: 0
      m_TileColorIndex: 0
      m_TileObjectToInstantiateIndex: 65535
      m_AllTileFlags: 1073741825
  - first: {x: 8, y: -7, z: 0}
    second:
      serializedVersion: 2
      m_TileIndex: 125
      m_TileSpriteIndex: 125
      m_TileMatrixIndex: 0
      m_TileColorIndex: 0
      m_TileObjectToInstantiateIndex: 65535
      m_AllTileFlags: 1073741825
  - first: {x: 9, y: -7, z: 0}
    second:
      serializedVersion: 2
      m_TileIndex: 126
      m_TileSpriteIndex: 126
      m_TileMatrixIndex: 0
      m_TileColorIndex: 0
      m_TileObjectToInstantiateIndex: 65535
      m_AllTileFlags: 1073741825
  - first: {x: 10, y: -7, z: 0}
    second:
      serializedVersion: 2
      m_TileIndex: 127
      m_TileSpriteIndex: 127
      m_TileMatrixIndex: 0
      m_TileColorIndex: 0
      m_TileObjectToInstantiateIndex: 65535
      m_AllTileFlags: 1073741825
  - first: {x: 12, y: -7, z: 0}
    second:
      serializedVersion: 2
      m_TileIndex: 128
      m_TileSpriteIndex: 128
      m_TileMatrixIndex: 0
      m_TileColorIndex: 0
      m_TileObjectToInstantiateIndex: 65535
      m_AllTileFlags: 1073741825
  - first: {x: 13, y: -7, z: 0}
    second:
      serializedVersion: 2
      m_TileIndex: 129
      m_TileSpriteIndex: 129
      m_TileMatrixIndex: 0
      m_TileColorIndex: 0
      m_TileObjectToInstantiateIndex: 65535
      m_AllTileFlags: 1073741825
  - first: {x: 14, y: -7, z: 0}
    second:
      serializedVersion: 2
      m_TileIndex: 130
      m_TileSpriteIndex: 130
      m_TileMatrixIndex: 0
      m_TileColorIndex: 0
      m_TileObjectToInstantiateIndex: 65535
      m_AllTileFlags: 1073741825
  - first: {x: 15, y: -7, z: 0}
    second:
      serializedVersion: 2
      m_TileIndex: 131
      m_TileSpriteIndex: 131
      m_TileMatrixIndex: 0
      m_TileColorIndex: 0
      m_TileObjectToInstantiateIndex: 65535
      m_AllTileFlags: 1073741825
  - first: {x: -5, y: -6, z: 0}
    second:
      serializedVersion: 2
      m_TileIndex: 96
      m_TileSpriteIndex: 96
      m_TileMatrixIndex: 0
      m_TileColorIndex: 0
      m_TileObjectToInstantiateIndex: 65535
      m_AllTileFlags: 1073741825
  - first: {x: -4, y: -6, z: 0}
    second:
      serializedVersion: 2
      m_TileIndex: 97
      m_TileSpriteIndex: 97
      m_TileMatrixIndex: 0
      m_TileColorIndex: 0
      m_TileObjectToInstantiateIndex: 65535
      m_AllTileFlags: 1073741825
  - first: {x: -3, y: -6, z: 0}
    second:
      serializedVersion: 2
      m_TileIndex: 98
      m_TileSpriteIndex: 98
      m_TileMatrixIndex: 0
      m_TileColorIndex: 0
      m_TileObjectToInstantiateIndex: 65535
      m_AllTileFlags: 1073741825
  - first: {x: -2, y: -6, z: 0}
    second:
      serializedVersion: 2
      m_TileIndex: 99
      m_TileSpriteIndex: 99
      m_TileMatrixIndex: 0
      m_TileColorIndex: 0
      m_TileObjectToInstantiateIndex: 65535
      m_AllTileFlags: 1073741825
  - first: {x: -1, y: -6, z: 0}
    second:
      serializedVersion: 2
      m_TileIndex: 100
      m_TileSpriteIndex: 100
      m_TileMatrixIndex: 0
      m_TileColorIndex: 0
      m_TileObjectToInstantiateIndex: 65535
      m_AllTileFlags: 1073741825
  - first: {x: 1, y: -6, z: 0}
    second:
      serializedVersion: 2
      m_TileIndex: 101
      m_TileSpriteIndex: 101
      m_TileMatrixIndex: 0
      m_TileColorIndex: 0
      m_TileObjectToInstantiateIndex: 65535
      m_AllTileFlags: 1073741825
  - first: {x: 2, y: -6, z: 0}
    second:
      serializedVersion: 2
      m_TileIndex: 102
      m_TileSpriteIndex: 102
      m_TileMatrixIndex: 0
      m_TileColorIndex: 0
      m_TileObjectToInstantiateIndex: 65535
      m_AllTileFlags: 1073741825
  - first: {x: 3, y: -6, z: 0}
    second:
      serializedVersion: 2
      m_TileIndex: 103
      m_TileSpriteIndex: 103
      m_TileMatrixIndex: 0
      m_TileColorIndex: 0
      m_TileObjectToInstantiateIndex: 65535
      m_AllTileFlags: 1073741825
  - first: {x: 4, y: -6, z: 0}
    second:
      serializedVersion: 2
      m_TileIndex: 104
      m_TileSpriteIndex: 104
      m_TileMatrixIndex: 0
      m_TileColorIndex: 0
      m_TileObjectToInstantiateIndex: 65535
      m_AllTileFlags: 1073741825
  - first: {x: 5, y: -6, z: 0}
    second:
      serializedVersion: 2
      m_TileIndex: 105
      m_TileSpriteIndex: 105
      m_TileMatrixIndex: 0
      m_TileColorIndex: 0
      m_TileObjectToInstantiateIndex: 65535
      m_AllTileFlags: 1073741825
  - first: {x: 7, y: -6, z: 0}
    second:
      serializedVersion: 2
      m_TileIndex: 106
      m_TileSpriteIndex: 106
      m_TileMatrixIndex: 0
      m_TileColorIndex: 0
      m_TileObjectToInstantiateIndex: 65535
      m_AllTileFlags: 1073741825
  - first: {x: 8, y: -6, z: 0}
    second:
      serializedVersion: 2
      m_TileIndex: 107
      m_TileSpriteIndex: 107
      m_TileMatrixIndex: 0
      m_TileColorIndex: 0
      m_TileObjectToInstantiateIndex: 65535
      m_AllTileFlags: 1073741825
  - first: {x: 9, y: -6, z: 0}
    second:
      serializedVersion: 2
      m_TileIndex: 108
      m_TileSpriteIndex: 108
      m_TileMatrixIndex: 0
      m_TileColorIndex: 0
      m_TileObjectToInstantiateIndex: 65535
      m_AllTileFlags: 1073741825
  - first: {x: 10, y: -6, z: 0}
    second:
      serializedVersion: 2
      m_TileIndex: 109
      m_TileSpriteIndex: 109
      m_TileMatrixIndex: 0
      m_TileColorIndex: 0
      m_TileObjectToInstantiateIndex: 65535
      m_AllTileFlags: 1073741825
  - first: {x: 12, y: -6, z: 0}
    second:
      serializedVersion: 2
      m_TileIndex: 110
      m_TileSpriteIndex: 110
      m_TileMatrixIndex: 0
      m_TileColorIndex: 0
      m_TileObjectToInstantiateIndex: 65535
      m_AllTileFlags: 1073741825
  - first: {x: 13, y: -6, z: 0}
    second:
      serializedVersion: 2
      m_TileIndex: 111
      m_TileSpriteIndex: 111
      m_TileMatrixIndex: 0
      m_TileColorIndex: 0
      m_TileObjectToInstantiateIndex: 65535
      m_AllTileFlags: 1073741825
  - first: {x: 14, y: -6, z: 0}
    second:
      serializedVersion: 2
      m_TileIndex: 112
      m_TileSpriteIndex: 112
      m_TileMatrixIndex: 0
      m_TileColorIndex: 0
      m_TileObjectToInstantiateIndex: 65535
      m_AllTileFlags: 1073741825
  - first: {x: 15, y: -6, z: 0}
    second:
      serializedVersion: 2
      m_TileIndex: 113
      m_TileSpriteIndex: 113
      m_TileMatrixIndex: 0
      m_TileColorIndex: 0
      m_TileObjectToInstantiateIndex: 65535
      m_AllTileFlags: 1073741825
  - first: {x: -5, y: -4, z: 0}
    second:
      serializedVersion: 2
      m_TileIndex: 84
      m_TileSpriteIndex: 84
      m_TileMatrixIndex: 0
      m_TileColorIndex: 0
      m_TileObjectToInstantiateIndex: 65535
      m_AllTileFlags: 1073741825
  - first: {x: -4, y: -4, z: 0}
    second:
      serializedVersion: 2
      m_TileIndex: 85
      m_TileSpriteIndex: 85
      m_TileMatrixIndex: 0
      m_TileColorIndex: 0
      m_TileObjectToInstantiateIndex: 65535
      m_AllTileFlags: 1073741825
  - first: {x: -3, y: -4, z: 0}
    second:
      serializedVersion: 2
      m_TileIndex: 86
      m_TileSpriteIndex: 86
      m_TileMatrixIndex: 0
      m_TileColorIndex: 0
      m_TileObjectToInstantiateIndex: 65535
      m_AllTileFlags: 1073741825
  - first: {x: 1, y: -4, z: 0}
    second:
      serializedVersion: 2
      m_TileIndex: 87
      m_TileSpriteIndex: 87
      m_TileMatrixIndex: 0
      m_TileColorIndex: 0
      m_TileObjectToInstantiateIndex: 65535
      m_AllTileFlags: 1073741825
  - first: {x: 2, y: -4, z: 0}
    second:
      serializedVersion: 2
      m_TileIndex: 88
      m_TileSpriteIndex: 88
      m_TileMatrixIndex: 0
      m_TileColorIndex: 0
      m_TileObjectToInstantiateIndex: 65535
      m_AllTileFlags: 1073741825
  - first: {x: 3, y: -4, z: 0}
    second:
      serializedVersion: 2
      m_TileIndex: 89
      m_TileSpriteIndex: 89
      m_TileMatrixIndex: 0
      m_TileColorIndex: 0
      m_TileObjectToInstantiateIndex: 65535
      m_AllTileFlags: 1073741825
  - first: {x: 8, y: -4, z: 0}
    second:
      serializedVersion: 2
      m_TileIndex: 90
      m_TileSpriteIndex: 90
      m_TileMatrixIndex: 0
      m_TileColorIndex: 0
      m_TileObjectToInstantiateIndex: 65535
      m_AllTileFlags: 1073741825
  - first: {x: 9, y: -4, z: 0}
    second:
      serializedVersion: 2
      m_TileIndex: 91
      m_TileSpriteIndex: 91
      m_TileMatrixIndex: 0
      m_TileColorIndex: 0
      m_TileObjectToInstantiateIndex: 65535
      m_AllTileFlags: 1073741825
  - first: {x: 10, y: -4, z: 0}
    second:
      serializedVersion: 2
      m_TileIndex: 92
      m_TileSpriteIndex: 92
      m_TileMatrixIndex: 0
      m_TileColorIndex: 0
      m_TileObjectToInstantiateIndex: 65535
      m_AllTileFlags: 1073741825
  - first: {x: 12, y: -4, z: 0}
    second:
      serializedVersion: 2
      m_TileIndex: 93
      m_TileSpriteIndex: 93
      m_TileMatrixIndex: 0
      m_TileColorIndex: 0
      m_TileObjectToInstantiateIndex: 65535
      m_AllTileFlags: 1073741825
  - first: {x: 13, y: -4, z: 0}
    second:
      serializedVersion: 2
      m_TileIndex: 94
      m_TileSpriteIndex: 94
      m_TileMatrixIndex: 0
      m_TileColorIndex: 0
      m_TileObjectToInstantiateIndex: 65535
      m_AllTileFlags: 1073741825
  - first: {x: 14, y: -4, z: 0}
    second:
      serializedVersion: 2
      m_TileIndex: 95
      m_TileSpriteIndex: 95
      m_TileMatrixIndex: 0
      m_TileColorIndex: 0
      m_TileObjectToInstantiateIndex: 65535
      m_AllTileFlags: 1073741825
  - first: {x: -5, y: -3, z: 0}
    second:
      serializedVersion: 2
      m_TileIndex: 65
      m_TileSpriteIndex: 65
      m_TileMatrixIndex: 0
      m_TileColorIndex: 0
      m_TileObjectToInstantiateIndex: 65535
      m_AllTileFlags: 1073741825
  - first: {x: -4, y: -3, z: 0}
    second:
      serializedVersion: 2
      m_TileIndex: 66
      m_TileSpriteIndex: 66
      m_TileMatrixIndex: 0
      m_TileColorIndex: 0
      m_TileObjectToInstantiateIndex: 65535
      m_AllTileFlags: 1073741825
  - first: {x: -3, y: -3, z: 0}
    second:
      serializedVersion: 2
      m_TileIndex: 67
      m_TileSpriteIndex: 67
      m_TileMatrixIndex: 0
      m_TileColorIndex: 0
      m_TileObjectToInstantiateIndex: 65535
      m_AllTileFlags: 1073741825
  - first: {x: -2, y: -3, z: 0}
    second:
      serializedVersion: 2
      m_TileIndex: 68
      m_TileSpriteIndex: 68
      m_TileMatrixIndex: 0
      m_TileColorIndex: 0
      m_TileObjectToInstantiateIndex: 65535
      m_AllTileFlags: 1073741825
  - first: {x: -1, y: -3, z: 0}
    second:
      serializedVersion: 2
      m_TileIndex: 69
      m_TileSpriteIndex: 69
      m_TileMatrixIndex: 0
      m_TileColorIndex: 0
      m_TileObjectToInstantiateIndex: 65535
      m_AllTileFlags: 1073741825
  - first: {x: 1, y: -3, z: 0}
    second:
      serializedVersion: 2
      m_TileIndex: 70
      m_TileSpriteIndex: 70
      m_TileMatrixIndex: 0
      m_TileColorIndex: 0
      m_TileObjectToInstantiateIndex: 65535
      m_AllTileFlags: 1073741825
  - first: {x: 2, y: -3, z: 0}
    second:
      serializedVersion: 2
      m_TileIndex: 71
      m_TileSpriteIndex: 71
      m_TileMatrixIndex: 0
      m_TileColorIndex: 0
      m_TileObjectToInstantiateIndex: 65535
      m_AllTileFlags: 1073741825
  - first: {x: 3, y: -3, z: 0}
    second:
      serializedVersion: 2
      m_TileIndex: 72
      m_TileSpriteIndex: 72
      m_TileMatrixIndex: 0
      m_TileColorIndex: 0
      m_TileObjectToInstantiateIndex: 65535
      m_AllTileFlags: 1073741825
  - first: {x: 4, y: -3, z: 0}
    second:
      serializedVersion: 2
      m_TileIndex: 73
      m_TileSpriteIndex: 73
      m_TileMatrixIndex: 0
      m_TileColorIndex: 0
      m_TileObjectToInstantiateIndex: 65535
      m_AllTileFlags: 1073741825
  - first: {x: 5, y: -3, z: 0}
    second:
      serializedVersion: 2
      m_TileIndex: 74
      m_TileSpriteIndex: 74
      m_TileMatrixIndex: 0
      m_TileColorIndex: 0
      m_TileObjectToInstantiateIndex: 65535
      m_AllTileFlags: 1073741825
  - first: {x: 7, y: -3, z: 0}
    second:
      serializedVersion: 2
      m_TileIndex: 75
      m_TileSpriteIndex: 75
      m_TileMatrixIndex: 0
      m_TileColorIndex: 0
      m_TileObjectToInstantiateIndex: 65535
      m_AllTileFlags: 1073741825
  - first: {x: 8, y: -3, z: 0}
    second:
      serializedVersion: 2
      m_TileIndex: 76
      m_TileSpriteIndex: 76
      m_TileMatrixIndex: 0
      m_TileColorIndex: 0
      m_TileObjectToInstantiateIndex: 65535
      m_AllTileFlags: 1073741825
  - first: {x: 9, y: -3, z: 0}
    second:
      serializedVersion: 2
      m_TileIndex: 77
      m_TileSpriteIndex: 77
      m_TileMatrixIndex: 0
      m_TileColorIndex: 0
      m_TileObjectToInstantiateIndex: 65535
      m_AllTileFlags: 1073741825
  - first: {x: 10, y: -3, z: 0}
    second:
      serializedVersion: 2
      m_TileIndex: 78
      m_TileSpriteIndex: 78
      m_TileMatrixIndex: 0
      m_TileColorIndex: 0
      m_TileObjectToInstantiateIndex: 65535
      m_AllTileFlags: 1073741825
  - first: {x: 12, y: -3, z: 0}
    second:
      serializedVersion: 2
      m_TileIndex: 79
      m_TileSpriteIndex: 79
      m_TileMatrixIndex: 0
      m_TileColorIndex: 0
      m_TileObjectToInstantiateIndex: 65535
      m_AllTileFlags: 1073741825
  - first: {x: 13, y: -3, z: 0}
    second:
      serializedVersion: 2
      m_TileIndex: 80
      m_TileSpriteIndex: 80
      m_TileMatrixIndex: 0
      m_TileColorIndex: 0
      m_TileObjectToInstantiateIndex: 65535
      m_AllTileFlags: 1073741825
  - first: {x: 14, y: -3, z: 0}
    second:
      serializedVersion: 2
      m_TileIndex: 81
      m_TileSpriteIndex: 81
      m_TileMatrixIndex: 0
      m_TileColorIndex: 0
      m_TileObjectToInstantiateIndex: 65535
      m_AllTileFlags: 1073741825
  - first: {x: 15, y: -3, z: 0}
    second:
      serializedVersion: 2
      m_TileIndex: 82
      m_TileSpriteIndex: 82
      m_TileMatrixIndex: 0
      m_TileColorIndex: 0
      m_TileObjectToInstantiateIndex: 65535
      m_AllTileFlags: 1073741825
  - first: {x: 16, y: -3, z: 0}
    second:
      serializedVersion: 2
      m_TileIndex: 83
      m_TileSpriteIndex: 83
      m_TileMatrixIndex: 0
      m_TileColorIndex: 0
      m_TileObjectToInstantiateIndex: 65535
      m_AllTileFlags: 1073741825
  - first: {x: -5, y: -2, z: 0}
    second:
      serializedVersion: 2
      m_TileIndex: 46
      m_TileSpriteIndex: 46
      m_TileMatrixIndex: 0
      m_TileColorIndex: 0
      m_TileObjectToInstantiateIndex: 65535
      m_AllTileFlags: 1073741825
  - first: {x: -4, y: -2, z: 0}
    second:
      serializedVersion: 2
      m_TileIndex: 47
      m_TileSpriteIndex: 47
      m_TileMatrixIndex: 0
      m_TileColorIndex: 0
      m_TileObjectToInstantiateIndex: 65535
      m_AllTileFlags: 1073741825
  - first: {x: -3, y: -2, z: 0}
    second:
      serializedVersion: 2
      m_TileIndex: 48
      m_TileSpriteIndex: 48
      m_TileMatrixIndex: 0
      m_TileColorIndex: 0
      m_TileObjectToInstantiateIndex: 65535
      m_AllTileFlags: 1073741825
  - first: {x: -2, y: -2, z: 0}
    second:
      serializedVersion: 2
      m_TileIndex: 49
      m_TileSpriteIndex: 49
      m_TileMatrixIndex: 0
      m_TileColorIndex: 0
      m_TileObjectToInstantiateIndex: 65535
      m_AllTileFlags: 1073741825
  - first: {x: -1, y: -2, z: 0}
    second:
      serializedVersion: 2
      m_TileIndex: 50
      m_TileSpriteIndex: 50
      m_TileMatrixIndex: 0
      m_TileColorIndex: 0
      m_TileObjectToInstantiateIndex: 65535
      m_AllTileFlags: 1073741825
  - first: {x: 1, y: -2, z: 0}
    second:
      serializedVersion: 2
      m_TileIndex: 51
      m_TileSpriteIndex: 51
      m_TileMatrixIndex: 0
      m_TileColorIndex: 0
      m_TileObjectToInstantiateIndex: 65535
      m_AllTileFlags: 1073741825
  - first: {x: 2, y: -2, z: 0}
    second:
      serializedVersion: 2
      m_TileIndex: 52
      m_TileSpriteIndex: 52
      m_TileMatrixIndex: 0
      m_TileColorIndex: 0
      m_TileObjectToInstantiateIndex: 65535
      m_AllTileFlags: 1073741825
  - first: {x: 3, y: -2, z: 0}
    second:
      serializedVersion: 2
      m_TileIndex: 53
      m_TileSpriteIndex: 53
      m_TileMatrixIndex: 0
      m_TileColorIndex: 0
      m_TileObjectToInstantiateIndex: 65535
      m_AllTileFlags: 1073741825
  - first: {x: 4, y: -2, z: 0}
    second:
      serializedVersion: 2
      m_TileIndex: 54
      m_TileSpriteIndex: 54
      m_TileMatrixIndex: 0
      m_TileColorIndex: 0
      m_TileObjectToInstantiateIndex: 65535
      m_AllTileFlags: 1073741825
  - first: {x: 5, y: -2, z: 0}
    second:
      serializedVersion: 2
      m_TileIndex: 55
      m_TileSpriteIndex: 55
      m_TileMatrixIndex: 0
      m_TileColorIndex: 0
      m_TileObjectToInstantiateIndex: 65535
      m_AllTileFlags: 1073741825
  - first: {x: 7, y: -2, z: 0}
    second:
      serializedVersion: 2
      m_TileIndex: 56
      m_TileSpriteIndex: 56
      m_TileMatrixIndex: 0
      m_TileColorIndex: 0
      m_TileObjectToInstantiateIndex: 65535
      m_AllTileFlags: 1073741825
  - first: {x: 8, y: -2, z: 0}
    second:
      serializedVersion: 2
      m_TileIndex: 57
      m_TileSpriteIndex: 57
      m_TileMatrixIndex: 0
      m_TileColorIndex: 0
      m_TileObjectToInstantiateIndex: 65535
      m_AllTileFlags: 1073741825
  - first: {x: 9, y: -2, z: 0}
    second:
      serializedVersion: 2
      m_TileIndex: 58
      m_TileSpriteIndex: 58
      m_TileMatrixIndex: 0
      m_TileColorIndex: 0
      m_TileObjectToInstantiateIndex: 65535
      m_AllTileFlags: 1073741825
  - first: {x: 10, y: -2, z: 0}
    second:
      serializedVersion: 2
      m_TileIndex: 59
      m_TileSpriteIndex: 59
      m_TileMatrixIndex: 0
      m_TileColorIndex: 0
      m_TileObjectToInstantiateIndex: 65535
      m_AllTileFlags: 1073741825
  - first: {x: 12, y: -2, z: 0}
    second:
      serializedVersion: 2
      m_TileIndex: 60
      m_TileSpriteIndex: 60
      m_TileMatrixIndex: 0
      m_TileColorIndex: 0
      m_TileObjectToInstantiateIndex: 65535
      m_AllTileFlags: 1073741825
  - first: {x: 13, y: -2, z: 0}
    second:
      serializedVersion: 2
      m_TileIndex: 61
      m_TileSpriteIndex: 61
      m_TileMatrixIndex: 0
      m_TileColorIndex: 0
      m_TileObjectToInstantiateIndex: 65535
      m_AllTileFlags: 1073741825
  - first: {x: 14, y: -2, z: 0}
    second:
      serializedVersion: 2
      m_TileIndex: 62
      m_TileSpriteIndex: 62
      m_TileMatrixIndex: 0
      m_TileColorIndex: 0
      m_TileObjectToInstantiateIndex: 65535
      m_AllTileFlags: 1073741825
  - first: {x: 15, y: -2, z: 0}
    second:
      serializedVersion: 2
      m_TileIndex: 63
      m_TileSpriteIndex: 63
      m_TileMatrixIndex: 0
      m_TileColorIndex: 0
      m_TileObjectToInstantiateIndex: 65535
      m_AllTileFlags: 1073741825
  - first: {x: 16, y: -2, z: 0}
    second:
      serializedVersion: 2
      m_TileIndex: 64
      m_TileSpriteIndex: 64
      m_TileMatrixIndex: 0
      m_TileColorIndex: 0
      m_TileObjectToInstantiateIndex: 65535
      m_AllTileFlags: 1073741825
  - first: {x: -5, y: 0, z: 0}
    second:
      serializedVersion: 2
      m_TileIndex: 34
      m_TileSpriteIndex: 34
      m_TileMatrixIndex: 0
      m_TileColorIndex: 0
      m_TileObjectToInstantiateIndex: 65535
      m_AllTileFlags: 1073741825
  - first: {x: -4, y: 0, z: 0}
    second:
      serializedVersion: 2
      m_TileIndex: 35
      m_TileSpriteIndex: 35
      m_TileMatrixIndex: 0
      m_TileColorIndex: 0
      m_TileObjectToInstantiateIndex: 65535
      m_AllTileFlags: 1073741825
  - first: {x: -3, y: 0, z: 0}
    second:
      serializedVersion: 2
      m_TileIndex: 36
      m_TileSpriteIndex: 36
      m_TileMatrixIndex: 0
      m_TileColorIndex: 0
      m_TileObjectToInstantiateIndex: 65535
      m_AllTileFlags: 1073741825
  - first: {x: 1, y: 0, z: 0}
    second:
      serializedVersion: 2
      m_TileIndex: 37
      m_TileSpriteIndex: 37
      m_TileMatrixIndex: 0
      m_TileColorIndex: 0
      m_TileObjectToInstantiateIndex: 65535
      m_AllTileFlags: 1073741825
  - first: {x: 2, y: 0, z: 0}
    second:
      serializedVersion: 2
      m_TileIndex: 38
      m_TileSpriteIndex: 38
      m_TileMatrixIndex: 0
      m_TileColorIndex: 0
      m_TileObjectToInstantiateIndex: 65535
      m_AllTileFlags: 1073741825
  - first: {x: 3, y: 0, z: 0}
    second:
      serializedVersion: 2
      m_TileIndex: 39
      m_TileSpriteIndex: 39
      m_TileMatrixIndex: 0
      m_TileColorIndex: 0
      m_TileObjectToInstantiateIndex: 65535
      m_AllTileFlags: 1073741825
  - first: {x: 8, y: 0, z: 0}
    second:
      serializedVersion: 2
      m_TileIndex: 40
      m_TileSpriteIndex: 40
      m_TileMatrixIndex: 0
      m_TileColorIndex: 0
      m_TileObjectToInstantiateIndex: 65535
      m_AllTileFlags: 1073741825
  - first: {x: 9, y: 0, z: 0}
    second:
      serializedVersion: 2
      m_TileIndex: 41
      m_TileSpriteIndex: 41
      m_TileMatrixIndex: 0
      m_TileColorIndex: 0
      m_TileObjectToInstantiateIndex: 65535
      m_AllTileFlags: 1073741825
  - first: {x: 10, y: 0, z: 0}
    second:
      serializedVersion: 2
      m_TileIndex: 42
      m_TileSpriteIndex: 42
      m_TileMatrixIndex: 0
      m_TileColorIndex: 0
      m_TileObjectToInstantiateIndex: 65535
      m_AllTileFlags: 1073741825
  - first: {x: 12, y: 0, z: 0}
    second:
      serializedVersion: 2
      m_TileIndex: 43
      m_TileSpriteIndex: 43
      m_TileMatrixIndex: 0
      m_TileColorIndex: 0
      m_TileObjectToInstantiateIndex: 65535
      m_AllTileFlags: 1073741825
  - first: {x: 13, y: 0, z: 0}
    second:
      serializedVersion: 2
      m_TileIndex: 44
      m_TileSpriteIndex: 44
      m_TileMatrixIndex: 0
      m_TileColorIndex: 0
      m_TileObjectToInstantiateIndex: 65535
      m_AllTileFlags: 1073741825
  - first: {x: 14, y: 0, z: 0}
    second:
      serializedVersion: 2
      m_TileIndex: 45
      m_TileSpriteIndex: 45
      m_TileMatrixIndex: 0
      m_TileColorIndex: 0
      m_TileObjectToInstantiateIndex: 65535
      m_AllTileFlags: 1073741825
  - first: {x: -5, y: 1, z: 0}
    second:
      serializedVersion: 2
      m_TileIndex: 17
      m_TileSpriteIndex: 17
      m_TileMatrixIndex: 0
      m_TileColorIndex: 0
      m_TileObjectToInstantiateIndex: 65535
      m_AllTileFlags: 1073741825
  - first: {x: -4, y: 1, z: 0}
    second:
      serializedVersion: 2
      m_TileIndex: 18
      m_TileSpriteIndex: 18
      m_TileMatrixIndex: 0
      m_TileColorIndex: 0
      m_TileObjectToInstantiateIndex: 65535
      m_AllTileFlags: 1073741825
  - first: {x: -3, y: 1, z: 0}
    second:
      serializedVersion: 2
      m_TileIndex: 19
      m_TileSpriteIndex: 19
      m_TileMatrixIndex: 0
      m_TileColorIndex: 0
      m_TileObjectToInstantiateIndex: 65535
      m_AllTileFlags: 1073741825
  - first: {x: -2, y: 1, z: 0}
    second:
      serializedVersion: 2
      m_TileIndex: 20
      m_TileSpriteIndex: 20
      m_TileMatrixIndex: 0
      m_TileColorIndex: 0
      m_TileObjectToInstantiateIndex: 65535
      m_AllTileFlags: 1073741825
  - first: {x: -1, y: 1, z: 0}
    second:
      serializedVersion: 2
      m_TileIndex: 21
      m_TileSpriteIndex: 21
      m_TileMatrixIndex: 0
      m_TileColorIndex: 0
      m_TileObjectToInstantiateIndex: 65535
      m_AllTileFlags: 1073741825
  - first: {x: 1, y: 1, z: 0}
    second:
      serializedVersion: 2
      m_TileIndex: 22
      m_TileSpriteIndex: 22
      m_TileMatrixIndex: 0
      m_TileColorIndex: 0
      m_TileObjectToInstantiateIndex: 65535
      m_AllTileFlags: 1073741825
  - first: {x: 2, y: 1, z: 0}
    second:
      serializedVersion: 2
      m_TileIndex: 23
      m_TileSpriteIndex: 23
      m_TileMatrixIndex: 0
      m_TileColorIndex: 0
      m_TileObjectToInstantiateIndex: 65535
      m_AllTileFlags: 1073741825
  - first: {x: 3, y: 1, z: 0}
    second:
      serializedVersion: 2
      m_TileIndex: 24
      m_TileSpriteIndex: 24
      m_TileMatrixIndex: 0
      m_TileColorIndex: 0
      m_TileObjectToInstantiateIndex: 65535
      m_AllTileFlags: 1073741825
  - first: {x: 4, y: 1, z: 0}
    second:
      serializedVersion: 2
      m_TileIndex: 25
      m_TileSpriteIndex: 25
      m_TileMatrixIndex: 0
      m_TileColorIndex: 0
      m_TileObjectToInstantiateIndex: 65535
      m_AllTileFlags: 1073741825
  - first: {x: 5, y: 1, z: 0}
    second:
      serializedVersion: 2
      m_TileIndex: 26
      m_TileSpriteIndex: 26
      m_TileMatrixIndex: 0
      m_TileColorIndex: 0
      m_TileObjectToInstantiateIndex: 65535
      m_AllTileFlags: 1073741825
  - first: {x: 7, y: 1, z: 0}
    second:
      serializedVersion: 2
      m_TileIndex: 27
      m_TileSpriteIndex: 27
      m_TileMatrixIndex: 0
      m_TileColorIndex: 0
      m_TileObjectToInstantiateIndex: 65535
      m_AllTileFlags: 1073741825
  - first: {x: 8, y: 1, z: 0}
    second:
      serializedVersion: 2
      m_TileIndex: 28
      m_TileSpriteIndex: 28
      m_TileMatrixIndex: 0
      m_TileColorIndex: 0
      m_TileObjectToInstantiateIndex: 65535
      m_AllTileFlags: 1073741825
  - first: {x: 9, y: 1, z: 0}
    second:
      serializedVersion: 2
      m_TileIndex: 29
      m_TileSpriteIndex: 29
      m_TileMatrixIndex: 0
      m_TileColorIndex: 0
      m_TileObjectToInstantiateIndex: 65535
      m_AllTileFlags: 1073741825
  - first: {x: 10, y: 1, z: 0}
    second:
      serializedVersion: 2
      m_TileIndex: 30
      m_TileSpriteIndex: 30
      m_TileMatrixIndex: 0
      m_TileColorIndex: 0
      m_TileObjectToInstantiateIndex: 65535
      m_AllTileFlags: 1073741825
  - first: {x: 12, y: 1, z: 0}
    second:
      serializedVersion: 2
      m_TileIndex: 31
      m_TileSpriteIndex: 31
      m_TileMatrixIndex: 0
      m_TileColorIndex: 0
      m_TileObjectToInstantiateIndex: 65535
      m_AllTileFlags: 1073741825
  - first: {x: 13, y: 1, z: 0}
    second:
      serializedVersion: 2
      m_TileIndex: 32
      m_TileSpriteIndex: 32
      m_TileMatrixIndex: 0
      m_TileColorIndex: 0
      m_TileObjectToInstantiateIndex: 65535
      m_AllTileFlags: 1073741825
  - first: {x: 14, y: 1, z: 0}
    second:
      serializedVersion: 2
      m_TileIndex: 33
      m_TileSpriteIndex: 33
      m_TileMatrixIndex: 0
      m_TileColorIndex: 0
      m_TileObjectToInstantiateIndex: 65535
      m_AllTileFlags: 1073741825
  - first: {x: -5, y: 2, z: 0}
    second:
      serializedVersion: 2
      m_TileIndex: 0
      m_TileSpriteIndex: 0
      m_TileMatrixIndex: 0
      m_TileColorIndex: 0
      m_TileObjectToInstantiateIndex: 65535
      m_AllTileFlags: 1073741825
  - first: {x: -4, y: 2, z: 0}
    second:
      serializedVersion: 2
      m_TileIndex: 1
      m_TileSpriteIndex: 1
      m_TileMatrixIndex: 0
      m_TileColorIndex: 0
      m_TileObjectToInstantiateIndex: 65535
      m_AllTileFlags: 1073741825
  - first: {x: -3, y: 2, z: 0}
    second:
      serializedVersion: 2
      m_TileIndex: 2
      m_TileSpriteIndex: 2
      m_TileMatrixIndex: 0
      m_TileColorIndex: 0
      m_TileObjectToInstantiateIndex: 65535
      m_AllTileFlags: 1073741825
  - first: {x: -2, y: 2, z: 0}
    second:
      serializedVersion: 2
      m_TileIndex: 3
      m_TileSpriteIndex: 3
      m_TileMatrixIndex: 0
      m_TileColorIndex: 0
      m_TileObjectToInstantiateIndex: 65535
      m_AllTileFlags: 1073741825
  - first: {x: -1, y: 2, z: 0}
    second:
      serializedVersion: 2
      m_TileIndex: 4
      m_TileSpriteIndex: 4
      m_TileMatrixIndex: 0
      m_TileColorIndex: 0
      m_TileObjectToInstantiateIndex: 65535
      m_AllTileFlags: 1073741825
  - first: {x: 1, y: 2, z: 0}
    second:
      serializedVersion: 2
      m_TileIndex: 5
      m_TileSpriteIndex: 5
      m_TileMatrixIndex: 0
      m_TileColorIndex: 0
      m_TileObjectToInstantiateIndex: 65535
      m_AllTileFlags: 1073741825
  - first: {x: 2, y: 2, z: 0}
    second:
      serializedVersion: 2
      m_TileIndex: 6
      m_TileSpriteIndex: 6
      m_TileMatrixIndex: 0
      m_TileColorIndex: 0
      m_TileObjectToInstantiateIndex: 65535
      m_AllTileFlags: 1073741825
  - first: {x: 3, y: 2, z: 0}
    second:
      serializedVersion: 2
      m_TileIndex: 7
      m_TileSpriteIndex: 7
      m_TileMatrixIndex: 0
      m_TileColorIndex: 0
      m_TileObjectToInstantiateIndex: 65535
      m_AllTileFlags: 1073741825
  - first: {x: 4, y: 2, z: 0}
    second:
      serializedVersion: 2
      m_TileIndex: 8
      m_TileSpriteIndex: 8
      m_TileMatrixIndex: 0
      m_TileColorIndex: 0
      m_TileObjectToInstantiateIndex: 65535
      m_AllTileFlags: 1073741825
  - first: {x: 5, y: 2, z: 0}
    second:
      serializedVersion: 2
      m_TileIndex: 9
      m_TileSpriteIndex: 9
      m_TileMatrixIndex: 0
      m_TileColorIndex: 0
      m_TileObjectToInstantiateIndex: 65535
      m_AllTileFlags: 1073741825
  - first: {x: 7, y: 2, z: 0}
    second:
      serializedVersion: 2
      m_TileIndex: 10
      m_TileSpriteIndex: 10
      m_TileMatrixIndex: 0
      m_TileColorIndex: 0
      m_TileObjectToInstantiateIndex: 65535
      m_AllTileFlags: 1073741825
  - first: {x: 8, y: 2, z: 0}
    second:
      serializedVersion: 2
      m_TileIndex: 11
      m_TileSpriteIndex: 11
      m_TileMatrixIndex: 0
      m_TileColorIndex: 0
      m_TileObjectToInstantiateIndex: 65535
      m_AllTileFlags: 1073741825
  - first: {x: 9, y: 2, z: 0}
    second:
      serializedVersion: 2
      m_TileIndex: 12
      m_TileSpriteIndex: 12
      m_TileMatrixIndex: 0
      m_TileColorIndex: 0
      m_TileObjectToInstantiateIndex: 65535
      m_AllTileFlags: 1073741825
  - first: {x: 10, y: 2, z: 0}
    second:
      serializedVersion: 2
      m_TileIndex: 13
      m_TileSpriteIndex: 13
      m_TileMatrixIndex: 0
      m_TileColorIndex: 0
      m_TileObjectToInstantiateIndex: 65535
      m_AllTileFlags: 1073741825
  - first: {x: 12, y: 2, z: 0}
    second:
      serializedVersion: 2
      m_TileIndex: 14
      m_TileSpriteIndex: 14
      m_TileMatrixIndex: 0
      m_TileColorIndex: 0
      m_TileObjectToInstantiateIndex: 65535
      m_AllTileFlags: 1073741825
  - first: {x: 13, y: 2, z: 0}
    second:
      serializedVersion: 2
      m_TileIndex: 15
      m_TileSpriteIndex: 15
      m_TileMatrixIndex: 0
      m_TileColorIndex: 0
      m_TileObjectToInstantiateIndex: 65535
      m_AllTileFlags: 1073741825
  - first: {x: 14, y: 2, z: 0}
    second:
      serializedVersion: 2
      m_TileIndex: 16
      m_TileSpriteIndex: 16
      m_TileMatrixIndex: 0
      m_TileColorIndex: 0
      m_TileObjectToInstantiateIndex: 65535
      m_AllTileFlags: 1073741825
  m_AnimatedTiles: {}
  m_TileAssetArray:
  - m_RefCount: 1
    m_Data: {fileID: 11400000, guid: e56b7891bb52295409c6e060175acd66, type: 2}
  - m_RefCount: 1
    m_Data: {fileID: 11400000, guid: ccce173dfa0fadb41bba267ad333f81c, type: 2}
  - m_RefCount: 1
    m_Data: {fileID: 11400000, guid: 7a6616ca4e3dd874c8de56b1f2cfbfc1, type: 2}
  - m_RefCount: 1
    m_Data: {fileID: 11400000, guid: 3fa750717ec699c428df2ff13cff5e09, type: 2}
  - m_RefCount: 1
    m_Data: {fileID: 11400000, guid: cf29b35e198a2984fac781a1b4f4aeea, type: 2}
  - m_RefCount: 1
    m_Data: {fileID: 11400000, guid: 42563e9973acfb641a7a98967464f9a0, type: 2}
  - m_RefCount: 1
    m_Data: {fileID: 11400000, guid: 1d96016c9710ee943876a8ddb91fb8b6, type: 2}
  - m_RefCount: 1
    m_Data: {fileID: 11400000, guid: d458fcd5e69caf644834deea01e6e9de, type: 2}
  - m_RefCount: 1
    m_Data: {fileID: 11400000, guid: df70bcdb6158010499164b46456189f5, type: 2}
  - m_RefCount: 1
    m_Data: {fileID: 11400000, guid: 370ccb713ba9798478b7f007c48e2c33, type: 2}
  - m_RefCount: 1
    m_Data: {fileID: 11400000, guid: 12c835c5d4f69be4ea27f00c09daa98f, type: 2}
  - m_RefCount: 1
    m_Data: {fileID: 11400000, guid: 9a014c4df3b134541ace62d9823db0f8, type: 2}
  - m_RefCount: 1
    m_Data: {fileID: 11400000, guid: 95d4fe7750fb3154792ece3cd7bcee7a, type: 2}
  - m_RefCount: 1
    m_Data: {fileID: 11400000, guid: 7d2f8e4b81ddc1147bf43b429a9c19a9, type: 2}
  - m_RefCount: 1
    m_Data: {fileID: 11400000, guid: bbe6ec92b03cc8547b90000b780be2d8, type: 2}
  - m_RefCount: 1
    m_Data: {fileID: 11400000, guid: b6ef43af963db664ea5d9b021cf06db3, type: 2}
  - m_RefCount: 1
    m_Data: {fileID: 11400000, guid: 5a5cd51c023bfa1489cc54a3fddfc43e, type: 2}
  - m_RefCount: 1
    m_Data: {fileID: 11400000, guid: 7ac473265add3a44088c7e280b41bb79, type: 2}
  - m_RefCount: 1
    m_Data: {fileID: 11400000, guid: a05f451ede3b00740a2c567cab78782b, type: 2}
  - m_RefCount: 1
    m_Data: {fileID: 11400000, guid: 86a80d7fe8f0de14e8e99895354d47b1, type: 2}
  - m_RefCount: 1
    m_Data: {fileID: 11400000, guid: 5a2d0b518d3b89d4c8e395cdf9e444b2, type: 2}
  - m_RefCount: 1
    m_Data: {fileID: 11400000, guid: b024c24042283f3428c08009ab0095f3, type: 2}
  - m_RefCount: 1
    m_Data: {fileID: 11400000, guid: afa8dbd7d4c955b4d9630685d9724255, type: 2}
  - m_RefCount: 1
    m_Data: {fileID: 11400000, guid: a6135f12435a2c6449e7410151332fdf, type: 2}
  - m_RefCount: 1
    m_Data: {fileID: 11400000, guid: 38ee5b4c1868ef347894f651b0c4dbe8, type: 2}
  - m_RefCount: 1
    m_Data: {fileID: 11400000, guid: df38709f934d500479f36472e0dfcc4c, type: 2}
  - m_RefCount: 1
    m_Data: {fileID: 11400000, guid: 82627961d13775e4cb742d614963b9a5, type: 2}
  - m_RefCount: 1
    m_Data: {fileID: 11400000, guid: a200eeb3583de8046ab9314f6461b5ca, type: 2}
  - m_RefCount: 1
    m_Data: {fileID: 11400000, guid: bee4c87ce9455994d9f44857c29498bd, type: 2}
  - m_RefCount: 1
    m_Data: {fileID: 11400000, guid: 5a0c86438fe79d643b003e6ab5715cd3, type: 2}
  - m_RefCount: 1
    m_Data: {fileID: 11400000, guid: 79765f3d3bb8e444f86a623b1056cde6, type: 2}
  - m_RefCount: 1
    m_Data: {fileID: 11400000, guid: ee1ad19528221fe4c9dd02ea47419e9f, type: 2}
  - m_RefCount: 1
    m_Data: {fileID: 11400000, guid: d9542273afecdd247be87a74926e38c6, type: 2}
  - m_RefCount: 1
    m_Data: {fileID: 11400000, guid: e5a9a28c88505b047ae5adff0e6cd59d, type: 2}
  - m_RefCount: 1
    m_Data: {fileID: 11400000, guid: adb6a5d2f2824204e9b5302baab31150, type: 2}
  - m_RefCount: 1
    m_Data: {fileID: 11400000, guid: 641517a14af08404a8cb90912e514383, type: 2}
  - m_RefCount: 1
    m_Data: {fileID: 11400000, guid: a9afbb18c215fa84088767cdd75a8c4c, type: 2}
  - m_RefCount: 1
    m_Data: {fileID: 11400000, guid: d2b1b451f4b48eb4e8cde2a5d15487fa, type: 2}
  - m_RefCount: 1
    m_Data: {fileID: 11400000, guid: ed60f689b816c324d98e531af21b6791, type: 2}
  - m_RefCount: 1
    m_Data: {fileID: 11400000, guid: 82fec38aff36e934791118a74b759d95, type: 2}
  - m_RefCount: 1
    m_Data: {fileID: 11400000, guid: 4ba4848505b574e41a0c31adb06fb352, type: 2}
  - m_RefCount: 1
    m_Data: {fileID: 11400000, guid: 2087ad59a4fb1794bb0bc710a3db0fe2, type: 2}
  - m_RefCount: 1
    m_Data: {fileID: 11400000, guid: 75a7f72e01a253143a41d06ade5cb20a, type: 2}
  - m_RefCount: 1
    m_Data: {fileID: 11400000, guid: 0c9e51d4eff43a54f8666b4fee577bb1, type: 2}
  - m_RefCount: 1
    m_Data: {fileID: 11400000, guid: b56900a8ca7edbc4a840da94e15206f8, type: 2}
  - m_RefCount: 1
    m_Data: {fileID: 11400000, guid: 36a603aa845c80c4490ce8f921ce88fd, type: 2}
  - m_RefCount: 1
    m_Data: {fileID: 11400000, guid: d941f6f89239422429095c9a30ac6b47, type: 2}
  - m_RefCount: 1
    m_Data: {fileID: 11400000, guid: 9731d43b3fec80b40bc968002f62952c, type: 2}
  - m_RefCount: 1
    m_Data: {fileID: 11400000, guid: c7426eaf4315b6c42ba2f71d833e07b7, type: 2}
  - m_RefCount: 1
    m_Data: {fileID: 11400000, guid: 72cc5b8c214949348be4f72f7aad8597, type: 2}
  - m_RefCount: 1
    m_Data: {fileID: 11400000, guid: 86bf55adbf24aeb4c9ee3e27355c261b, type: 2}
  - m_RefCount: 1
    m_Data: {fileID: 11400000, guid: f46d49b6ab08e4842ab738af46f53733, type: 2}
  - m_RefCount: 1
    m_Data: {fileID: 11400000, guid: ee9ae5454dc6ac94aa51001173cdd7d7, type: 2}
  - m_RefCount: 1
    m_Data: {fileID: 11400000, guid: bd306a1a5c799ef4ea8f92f04e17116a, type: 2}
  - m_RefCount: 1
    m_Data: {fileID: 11400000, guid: 78eb2031ccaf2634fb508e805675b133, type: 2}
  - m_RefCount: 1
    m_Data: {fileID: 11400000, guid: a4dea0730ab88144cafaddd19f7584b9, type: 2}
  - m_RefCount: 1
    m_Data: {fileID: 11400000, guid: 30ae052e45a80a64db2b5ccbf0534e89, type: 2}
  - m_RefCount: 1
    m_Data: {fileID: 11400000, guid: 0bf627bef1602464eb337e4f2e87ca45, type: 2}
  - m_RefCount: 1
    m_Data: {fileID: 11400000, guid: 442b9bd33d14649439080640b9b09cfa, type: 2}
  - m_RefCount: 1
    m_Data: {fileID: 11400000, guid: 88b91bdbc3575814d80eda8aa850a1dc, type: 2}
  - m_RefCount: 1
    m_Data: {fileID: 11400000, guid: c2720cc7557244c418b8e50cf6668c42, type: 2}
  - m_RefCount: 1
    m_Data: {fileID: 11400000, guid: 8168730776fad454781bb298a7fb682f, type: 2}
  - m_RefCount: 1
    m_Data: {fileID: 11400000, guid: 5ad05f75470758743abf855f33d31d8e, type: 2}
  - m_RefCount: 1
    m_Data: {fileID: 11400000, guid: b8d72fb3aa1154648b97b28eb783e866, type: 2}
  - m_RefCount: 1
    m_Data: {fileID: 11400000, guid: db0ade859fe34be4790ac6d1073a69aa, type: 2}
  - m_RefCount: 1
    m_Data: {fileID: 11400000, guid: 11865793004e1d54bb208a246bfc5449, type: 2}
  - m_RefCount: 1
    m_Data: {fileID: 11400000, guid: 4a175912e01477b429903dbe8a89088f, type: 2}
  - m_RefCount: 1
    m_Data: {fileID: 11400000, guid: 4c79347b78554f9408b93859ea5f2b0c, type: 2}
  - m_RefCount: 1
    m_Data: {fileID: 11400000, guid: 4aa4392a3204eb844b42459bfee50d3b, type: 2}
  - m_RefCount: 1
    m_Data: {fileID: 11400000, guid: ca7a8109b049a5a41b342be176530646, type: 2}
  - m_RefCount: 1
    m_Data: {fileID: 11400000, guid: c1f777efaf3f23a4fb9c378558fee2f3, type: 2}
  - m_RefCount: 1
    m_Data: {fileID: 11400000, guid: 5bd32c7e1f1439c4d8e55aaef467f263, type: 2}
  - m_RefCount: 1
    m_Data: {fileID: 11400000, guid: 57a8cb89e87763d4c92b0a30373fca1c, type: 2}
  - m_RefCount: 1
    m_Data: {fileID: 11400000, guid: 527a5e0c7fc64cd49bfa7f3ab9f06f89, type: 2}
  - m_RefCount: 1
    m_Data: {fileID: 11400000, guid: f949e4bc22f0528418af094889533208, type: 2}
  - m_RefCount: 1
    m_Data: {fileID: 11400000, guid: 6e56d3e9d79bdc242b20810f01497ba6, type: 2}
  - m_RefCount: 1
    m_Data: {fileID: 11400000, guid: 9bc271f849dc70c49b7bd6fe87844fb3, type: 2}
  - m_RefCount: 1
    m_Data: {fileID: 11400000, guid: db23bf0dcbe2e3a4c903780072527e2c, type: 2}
  - m_RefCount: 1
    m_Data: {fileID: 11400000, guid: 3699755f5bee0b2429f3ea29f0410060, type: 2}
  - m_RefCount: 1
    m_Data: {fileID: 11400000, guid: f468c5097aa314042b0905d6fd9c8d7b, type: 2}
  - m_RefCount: 1
    m_Data: {fileID: 11400000, guid: 727d7ce6a16cecc4580580c0965c57d1, type: 2}
  - m_RefCount: 1
    m_Data: {fileID: 11400000, guid: 81a356d07c82c674a8022b9cbd51401a, type: 2}
  - m_RefCount: 1
    m_Data: {fileID: 11400000, guid: f8b99067c5f76104e9f8fb610b8f16e1, type: 2}
  - m_RefCount: 1
    m_Data: {fileID: 11400000, guid: b1766f0148a97134c9a4babb6f7753c5, type: 2}
  - m_RefCount: 1
    m_Data: {fileID: 11400000, guid: 573ad3167c5a2e842b52ce91b3a7210c, type: 2}
  - m_RefCount: 1
    m_Data: {fileID: 11400000, guid: 512dd7f10dbe6eb408d975d4be502ab2, type: 2}
  - m_RefCount: 1
    m_Data: {fileID: 11400000, guid: 04f448e829120594683e8081811728d8, type: 2}
  - m_RefCount: 1
    m_Data: {fileID: 11400000, guid: c1b541515d86668499661f99c337a1be, type: 2}
  - m_RefCount: 1
    m_Data: {fileID: 11400000, guid: 8d3f77e94a11762458a2f5a1f7562f90, type: 2}
  - m_RefCount: 1
    m_Data: {fileID: 11400000, guid: 941adbbb0325a4a45ab3beb08f4c1746, type: 2}
  - m_RefCount: 1
    m_Data: {fileID: 11400000, guid: 99e1e8c504fb5fe45af6063b85eccd4a, type: 2}
  - m_RefCount: 1
    m_Data: {fileID: 11400000, guid: a882bc10ed77deb48a04bea9e1370355, type: 2}
  - m_RefCount: 1
    m_Data: {fileID: 11400000, guid: 3aba4323bbbeda648b1b667fea284483, type: 2}
  - m_RefCount: 1
    m_Data: {fileID: 11400000, guid: d21d64756f7fca24e9966ce93fa05f21, type: 2}
  - m_RefCount: 1
    m_Data: {fileID: 11400000, guid: 8c93b61a6c70b2648bf9efd5df75a2a8, type: 2}
  - m_RefCount: 1
    m_Data: {fileID: 11400000, guid: 602725ca62dfb9f4e83eca2cdb9a84a2, type: 2}
  - m_RefCount: 1
    m_Data: {fileID: 11400000, guid: 2496dd2197ce1624cab3955e17999849, type: 2}
  - m_RefCount: 1
    m_Data: {fileID: 11400000, guid: 30465608e22207949845c8d797579da0, type: 2}
  - m_RefCount: 1
    m_Data: {fileID: 11400000, guid: 4ee30e671063dd644aa883dc94f52812, type: 2}
  - m_RefCount: 1
    m_Data: {fileID: 11400000, guid: 4d52ddb6bb547554693d40a282f6aa3a, type: 2}
  - m_RefCount: 1
    m_Data: {fileID: 11400000, guid: d3d22217c8e170c4ea77d4a581d5dda8, type: 2}
  - m_RefCount: 1
    m_Data: {fileID: 11400000, guid: af4b2ced67e72b74aa9e99f3be407b5a, type: 2}
  - m_RefCount: 1
    m_Data: {fileID: 11400000, guid: 0233bf54018f3a742911da6103738894, type: 2}
  - m_RefCount: 1
    m_Data: {fileID: 11400000, guid: 6e2cf2c681e7a9d42809159d5b56f089, type: 2}
  - m_RefCount: 1
    m_Data: {fileID: 11400000, guid: 3625ca06ec37dc540a409834b71ed333, type: 2}
  - m_RefCount: 1
    m_Data: {fileID: 11400000, guid: 8fb6153ac90da974b880fc537d563b26, type: 2}
  - m_RefCount: 1
    m_Data: {fileID: 11400000, guid: 55b8572e92dc4bb4ea69d50a66c73bd4, type: 2}
  - m_RefCount: 1
    m_Data: {fileID: 11400000, guid: 00c44e70ff277434586d94cedbbeb857, type: 2}
  - m_RefCount: 1
    m_Data: {fileID: 11400000, guid: 507264dcb8771bd49adc0d59c7d40ade, type: 2}
  - m_RefCount: 1
    m_Data: {fileID: 11400000, guid: 231e6646378d4d74683b764a5d3b29dd, type: 2}
  - m_RefCount: 1
    m_Data: {fileID: 11400000, guid: eb1708cc4f03fd04e83546826c795c93, type: 2}
  - m_RefCount: 1
    m_Data: {fileID: 11400000, guid: 337d1598926ffe84f85022685e726401, type: 2}
  - m_RefCount: 1
    m_Data: {fileID: 11400000, guid: 74b40d34242d30d41b88aa74d77c61b7, type: 2}
  - m_RefCount: 1
    m_Data: {fileID: 11400000, guid: 1a9238227a1e5c249b7e9db2c7e4b8ee, type: 2}
  - m_RefCount: 1
    m_Data: {fileID: 11400000, guid: 89d8cdf4e7713b1469351dd45860ff80, type: 2}
  - m_RefCount: 1
    m_Data: {fileID: 11400000, guid: 57a2992d826539148b7a9d959bf827dd, type: 2}
  - m_RefCount: 1
    m_Data: {fileID: 11400000, guid: a80705539c2c44d45aa81691760c2ead, type: 2}
  - m_RefCount: 1
    m_Data: {fileID: 11400000, guid: cb44d5793228b7a479039c673e8f9082, type: 2}
  - m_RefCount: 1
    m_Data: {fileID: 11400000, guid: a27ba809b01f3bc4e90f30d05707c207, type: 2}
  - m_RefCount: 1
    m_Data: {fileID: 11400000, guid: 9a8481e987f07094ba25dc30a207277e, type: 2}
  - m_RefCount: 1
    m_Data: {fileID: 11400000, guid: 4ed1ae6e2be056b4980069f47689992b, type: 2}
  - m_RefCount: 1
    m_Data: {fileID: 11400000, guid: e946e81574b9a9f43ae09387664ec839, type: 2}
  - m_RefCount: 1
    m_Data: {fileID: 11400000, guid: d4e12b0b84e9ff040891b6d5b2034611, type: 2}
  - m_RefCount: 1
    m_Data: {fileID: 11400000, guid: 8233e64411a3f954e99ce652e604c389, type: 2}
  - m_RefCount: 1
    m_Data: {fileID: 11400000, guid: 83aee2fcdf6ff1f4b91907f0add5e3ed, type: 2}
  - m_RefCount: 1
    m_Data: {fileID: 11400000, guid: db54d639458e14242b171c2a9258b16a, type: 2}
  - m_RefCount: 1
    m_Data: {fileID: 11400000, guid: 631d6d5a54a944441bc59d4906a442e9, type: 2}
  - m_RefCount: 1
    m_Data: {fileID: 11400000, guid: 8f1d8b0b66053194d87e55c437e570df, type: 2}
  - m_RefCount: 1
    m_Data: {fileID: 11400000, guid: e59d6793ef0353b42a9c05f3e6c12777, type: 2}
  - m_RefCount: 1
    m_Data: {fileID: 11400000, guid: 4179482dc734bcc40a4f0262103b9647, type: 2}
  - m_RefCount: 1
    m_Data: {fileID: 11400000, guid: 9d6589828c6e9f04692a401379000b85, type: 2}
  - m_RefCount: 1
    m_Data: {fileID: 11400000, guid: 0947ebd3c8f8d45408e09534ef6c92c9, type: 2}
  - m_RefCount: 1
    m_Data: {fileID: 11400000, guid: e9ab74d211753ea4a86606847a438f5e, type: 2}
  - m_RefCount: 1
    m_Data: {fileID: 11400000, guid: 5142e0be81609f942a0e35759a3519d4, type: 2}
  - m_RefCount: 1
    m_Data: {fileID: 11400000, guid: 01a846cb85b667848a2872238739c509, type: 2}
  - m_RefCount: 1
    m_Data: {fileID: 11400000, guid: ccd69c217484a4342b90c4345bb255ec, type: 2}
  - m_RefCount: 1
    m_Data: {fileID: 11400000, guid: 08ca7ce0edfe1ed4d865c4df72b5d1ca, type: 2}
  - m_RefCount: 1
    m_Data: {fileID: 11400000, guid: e790e4815fe44ed4c9229382e923ba97, type: 2}
  - m_RefCount: 1
    m_Data: {fileID: 11400000, guid: 8f2d080af1f0c1e4589ef5f2e927dac7, type: 2}
  - m_RefCount: 1
    m_Data: {fileID: 11400000, guid: 0634c388c3674cc46b68f0320ac26a2e, type: 2}
  - m_RefCount: 1
    m_Data: {fileID: 11400000, guid: ffa090c8f9e624249945b769bd618392, type: 2}
  - m_RefCount: 1
    m_Data: {fileID: 11400000, guid: add5265f87e92db4e8e170da985aec3c, type: 2}
  - m_RefCount: 1
    m_Data: {fileID: 11400000, guid: 112609aeaa83d0648a450a8e1986f8a4, type: 2}
  - m_RefCount: 1
    m_Data: {fileID: 11400000, guid: d66678352f3a01144829ffbd1f2af6d1, type: 2}
  m_TileSpriteArray:
  - m_RefCount: 1
    m_Data: {fileID: -4874278423985981231, guid: fc584d329b77b9545b9c9c8bb829e553,
      type: 3}
  - m_RefCount: 1
    m_Data: {fileID: 2492004042214043949, guid: fc584d329b77b9545b9c9c8bb829e553,
      type: 3}
  - m_RefCount: 1
    m_Data: {fileID: 8471289998749917440, guid: fc584d329b77b9545b9c9c8bb829e553,
      type: 3}
  - m_RefCount: 1
    m_Data: {fileID: 397718093594370940, guid: fc584d329b77b9545b9c9c8bb829e553, type: 3}
  - m_RefCount: 1
    m_Data: {fileID: 4716054802376701170, guid: fc584d329b77b9545b9c9c8bb829e553,
      type: 3}
  - m_RefCount: 1
    m_Data: {fileID: -8620202154233844528, guid: fc584d329b77b9545b9c9c8bb829e553,
      type: 3}
  - m_RefCount: 1
    m_Data: {fileID: -7517053698926566003, guid: fc584d329b77b9545b9c9c8bb829e553,
      type: 3}
  - m_RefCount: 1
    m_Data: {fileID: 3020870990670601969, guid: fc584d329b77b9545b9c9c8bb829e553,
      type: 3}
  - m_RefCount: 1
    m_Data: {fileID: 1685935324672158413, guid: fc584d329b77b9545b9c9c8bb829e553,
      type: 3}
  - m_RefCount: 1
    m_Data: {fileID: 8022139226935704013, guid: fc584d329b77b9545b9c9c8bb829e553,
      type: 3}
  - m_RefCount: 1
    m_Data: {fileID: 5587568460378422633, guid: fc584d329b77b9545b9c9c8bb829e553,
      type: 3}
  - m_RefCount: 1
    m_Data: {fileID: 4987498479824627636, guid: fc584d329b77b9545b9c9c8bb829e553,
      type: 3}
  - m_RefCount: 1
    m_Data: {fileID: 6480251376165907240, guid: fc584d329b77b9545b9c9c8bb829e553,
      type: 3}
  - m_RefCount: 1
    m_Data: {fileID: -8795747966950415410, guid: fc584d329b77b9545b9c9c8bb829e553,
      type: 3}
  - m_RefCount: 1
    m_Data: {fileID: -6278356596846833739, guid: fc584d329b77b9545b9c9c8bb829e553,
      type: 3}
  - m_RefCount: 1
    m_Data: {fileID: -7850267199778421155, guid: fc584d329b77b9545b9c9c8bb829e553,
      type: 3}
  - m_RefCount: 1
    m_Data: {fileID: 8102182086558406705, guid: fc584d329b77b9545b9c9c8bb829e553,
      type: 3}
  - m_RefCount: 1
    m_Data: {fileID: 6918280329820428914, guid: fc584d329b77b9545b9c9c8bb829e553,
      type: 3}
  - m_RefCount: 1
    m_Data: {fileID: -3946849515626757761, guid: fc584d329b77b9545b9c9c8bb829e553,
      type: 3}
  - m_RefCount: 1
    m_Data: {fileID: -2698208165065819517, guid: fc584d329b77b9545b9c9c8bb829e553,
      type: 3}
  - m_RefCount: 1
    m_Data: {fileID: -5448943668070679941, guid: fc584d329b77b9545b9c9c8bb829e553,
      type: 3}
  - m_RefCount: 1
    m_Data: {fileID: -2572975058836569894, guid: fc584d329b77b9545b9c9c8bb829e553,
      type: 3}
  - m_RefCount: 1
    m_Data: {fileID: 5714336816974921154, guid: fc584d329b77b9545b9c9c8bb829e553,
      type: 3}
  - m_RefCount: 1
    m_Data: {fileID: 8704577166008928185, guid: fc584d329b77b9545b9c9c8bb829e553,
      type: 3}
  - m_RefCount: 1
    m_Data: {fileID: 313651839404696180, guid: fc584d329b77b9545b9c9c8bb829e553, type: 3}
  - m_RefCount: 1
    m_Data: {fileID: -1968872540364177098, guid: fc584d329b77b9545b9c9c8bb829e553,
      type: 3}
  - m_RefCount: 1
    m_Data: {fileID: -6401146908380638247, guid: fc584d329b77b9545b9c9c8bb829e553,
      type: 3}
  - m_RefCount: 1
    m_Data: {fileID: -3271834841568197018, guid: fc584d329b77b9545b9c9c8bb829e553,
      type: 3}
  - m_RefCount: 1
    m_Data: {fileID: -3097802831490656063, guid: fc584d329b77b9545b9c9c8bb829e553,
      type: 3}
  - m_RefCount: 1
    m_Data: {fileID: -8182233202742861025, guid: fc584d329b77b9545b9c9c8bb829e553,
      type: 3}
  - m_RefCount: 1
    m_Data: {fileID: -1730604581034617779, guid: fc584d329b77b9545b9c9c8bb829e553,
      type: 3}
  - m_RefCount: 1
    m_Data: {fileID: -1491035274662818768, guid: fc584d329b77b9545b9c9c8bb829e553,
      type: 3}
  - m_RefCount: 1
    m_Data: {fileID: -223391217462372170, guid: fc584d329b77b9545b9c9c8bb829e553,
      type: 3}
  - m_RefCount: 1
    m_Data: {fileID: 611065533247025525, guid: fc584d329b77b9545b9c9c8bb829e553, type: 3}
  - m_RefCount: 1
    m_Data: {fileID: 4356392584696007802, guid: fc584d329b77b9545b9c9c8bb829e553,
      type: 3}
  - m_RefCount: 1
    m_Data: {fileID: -8565927180804605051, guid: fc584d329b77b9545b9c9c8bb829e553,
      type: 3}
  - m_RefCount: 1
    m_Data: {fileID: -7788903373117692988, guid: fc584d329b77b9545b9c9c8bb829e553,
      type: 3}
  - m_RefCount: 1
    m_Data: {fileID: 1918823624152674874, guid: fc584d329b77b9545b9c9c8bb829e553,
      type: 3}
  - m_RefCount: 1
    m_Data: {fileID: 965125185638226396, guid: fc584d329b77b9545b9c9c8bb829e553, type: 3}
  - m_RefCount: 1
    m_Data: {fileID: 3631698497521491291, guid: fc584d329b77b9545b9c9c8bb829e553,
      type: 3}
  - m_RefCount: 1
    m_Data: {fileID: -1385159882611531606, guid: fc584d329b77b9545b9c9c8bb829e553,
      type: 3}
  - m_RefCount: 1
    m_Data: {fileID: 6882983052497979040, guid: fc584d329b77b9545b9c9c8bb829e553,
      type: 3}
  - m_RefCount: 1
    m_Data: {fileID: 5620700161029325194, guid: fc584d329b77b9545b9c9c8bb829e553,
      type: 3}
  - m_RefCount: 1
    m_Data: {fileID: 4373040517201769238, guid: fc584d329b77b9545b9c9c8bb829e553,
      type: 3}
  - m_RefCount: 1
    m_Data: {fileID: -6530495296205248430, guid: fc584d329b77b9545b9c9c8bb829e553,
      type: 3}
  - m_RefCount: 1
    m_Data: {fileID: 2248595124770686365, guid: fc584d329b77b9545b9c9c8bb829e553,
      type: 3}
  - m_RefCount: 1
    m_Data: {fileID: 59160463414151494, guid: fc584d329b77b9545b9c9c8bb829e553, type: 3}
  - m_RefCount: 1
    m_Data: {fileID: 7769017978755655707, guid: fc584d329b77b9545b9c9c8bb829e553,
      type: 3}
  - m_RefCount: 1
    m_Data: {fileID: 4651539075410445323, guid: fc584d329b77b9545b9c9c8bb829e553,
      type: 3}
  - m_RefCount: 1
    m_Data: {fileID: 2934133866269456315, guid: fc584d329b77b9545b9c9c8bb829e553,
      type: 3}
  - m_RefCount: 1
    m_Data: {fileID: 1034891850837087948, guid: fc584d329b77b9545b9c9c8bb829e553,
      type: 3}
  - m_RefCount: 1
    m_Data: {fileID: -4533138595082870998, guid: fc584d329b77b9545b9c9c8bb829e553,
      type: 3}
  - m_RefCount: 1
    m_Data: {fileID: 3702685922149842701, guid: fc584d329b77b9545b9c9c8bb829e553,
      type: 3}
  - m_RefCount: 1
    m_Data: {fileID: 510484679990689147, guid: fc584d329b77b9545b9c9c8bb829e553, type: 3}
  - m_RefCount: 1
    m_Data: {fileID: 3718556811081376101, guid: fc584d329b77b9545b9c9c8bb829e553,
      type: 3}
  - m_RefCount: 1
    m_Data: {fileID: -5869233480101591377, guid: fc584d329b77b9545b9c9c8bb829e553,
      type: 3}
  - m_RefCount: 1
    m_Data: {fileID: -2615569002567638836, guid: fc584d329b77b9545b9c9c8bb829e553,
      type: 3}
  - m_RefCount: 1
    m_Data: {fileID: 772467259971446145, guid: fc584d329b77b9545b9c9c8bb829e553, type: 3}
  - m_RefCount: 1
    m_Data: {fileID: -39983623799505075, guid: fc584d329b77b9545b9c9c8bb829e553, type: 3}
  - m_RefCount: 1
    m_Data: {fileID: 6999343348047764492, guid: fc584d329b77b9545b9c9c8bb829e553,
      type: 3}
  - m_RefCount: 1
    m_Data: {fileID: -6933530849576539303, guid: fc584d329b77b9545b9c9c8bb829e553,
      type: 3}
  - m_RefCount: 1
    m_Data: {fileID: -8849650766351124748, guid: fc584d329b77b9545b9c9c8bb829e553,
      type: 3}
  - m_RefCount: 1
    m_Data: {fileID: 5344191953466923600, guid: fc584d329b77b9545b9c9c8bb829e553,
      type: 3}
  - m_RefCount: 1
    m_Data: {fileID: 2110485755423906440, guid: fc584d329b77b9545b9c9c8bb829e553,
      type: 3}
  - m_RefCount: 1
    m_Data: {fileID: 611278257802682203, guid: fc584d329b77b9545b9c9c8bb829e553, type: 3}
  - m_RefCount: 1
    m_Data: {fileID: 8568688612705805593, guid: fc584d329b77b9545b9c9c8bb829e553,
      type: 3}
  - m_RefCount: 1
    m_Data: {fileID: -4293226751833479062, guid: fc584d329b77b9545b9c9c8bb829e553,
      type: 3}
  - m_RefCount: 1
    m_Data: {fileID: -531863552409210314, guid: fc584d329b77b9545b9c9c8bb829e553,
      type: 3}
  - m_RefCount: 1
    m_Data: {fileID: 3220740477721170248, guid: fc584d329b77b9545b9c9c8bb829e553,
      type: 3}
  - m_RefCount: 1
    m_Data: {fileID: -8232957222563989430, guid: fc584d329b77b9545b9c9c8bb829e553,
      type: 3}
  - m_RefCount: 1
    m_Data: {fileID: 3581976363580684779, guid: fc584d329b77b9545b9c9c8bb829e553,
      type: 3}
  - m_RefCount: 1
    m_Data: {fileID: 8137121077619138534, guid: fc584d329b77b9545b9c9c8bb829e553,
      type: 3}
  - m_RefCount: 1
    m_Data: {fileID: -4450007684230045513, guid: fc584d329b77b9545b9c9c8bb829e553,
      type: 3}
  - m_RefCount: 1
    m_Data: {fileID: 368488948622713827, guid: fc584d329b77b9545b9c9c8bb829e553, type: 3}
  - m_RefCount: 1
    m_Data: {fileID: -1652666043038260038, guid: fc584d329b77b9545b9c9c8bb829e553,
      type: 3}
  - m_RefCount: 1
    m_Data: {fileID: -3581127029532586042, guid: fc584d329b77b9545b9c9c8bb829e553,
      type: 3}
  - m_RefCount: 1
    m_Data: {fileID: -1130122408560378385, guid: fc584d329b77b9545b9c9c8bb829e553,
      type: 3}
  - m_RefCount: 1
    m_Data: {fileID: 1383883272258276261, guid: fc584d329b77b9545b9c9c8bb829e553,
      type: 3}
  - m_RefCount: 1
    m_Data: {fileID: -5125620877619029284, guid: fc584d329b77b9545b9c9c8bb829e553,
      type: 3}
  - m_RefCount: 1
    m_Data: {fileID: -7056944154279210060, guid: fc584d329b77b9545b9c9c8bb829e553,
      type: 3}
  - m_RefCount: 1
    m_Data: {fileID: -9178860142635623461, guid: fc584d329b77b9545b9c9c8bb829e553,
      type: 3}
  - m_RefCount: 1
    m_Data: {fileID: -5377211804188701585, guid: fc584d329b77b9545b9c9c8bb829e553,
      type: 3}
  - m_RefCount: 1
    m_Data: {fileID: -3332869691567337552, guid: fc584d329b77b9545b9c9c8bb829e553,
      type: 3}
  - m_RefCount: 1
    m_Data: {fileID: -7839824748867068813, guid: fc584d329b77b9545b9c9c8bb829e553,
      type: 3}
  - m_RefCount: 1
    m_Data: {fileID: 4860222720029096845, guid: fc584d329b77b9545b9c9c8bb829e553,
      type: 3}
  - m_RefCount: 1
    m_Data: {fileID: -8908544382962373700, guid: fc584d329b77b9545b9c9c8bb829e553,
      type: 3}
  - m_RefCount: 1
    m_Data: {fileID: 2534797647697017659, guid: fc584d329b77b9545b9c9c8bb829e553,
      type: 3}
  - m_RefCount: 1
    m_Data: {fileID: -701145450088738326, guid: fc584d329b77b9545b9c9c8bb829e553,
      type: 3}
  - m_RefCount: 1
    m_Data: {fileID: -7280874316543817821, guid: fc584d329b77b9545b9c9c8bb829e553,
      type: 3}
  - m_RefCount: 1
    m_Data: {fileID: 7816257180041521445, guid: fc584d329b77b9545b9c9c8bb829e553,
      type: 3}
  - m_RefCount: 1
    m_Data: {fileID: 4218957088357342075, guid: fc584d329b77b9545b9c9c8bb829e553,
      type: 3}
  - m_RefCount: 1
    m_Data: {fileID: -1647121858502193189, guid: fc584d329b77b9545b9c9c8bb829e553,
      type: 3}
  - m_RefCount: 1
    m_Data: {fileID: 3045001923454373135, guid: fc584d329b77b9545b9c9c8bb829e553,
      type: 3}
  - m_RefCount: 1
    m_Data: {fileID: 6046465229504819404, guid: fc584d329b77b9545b9c9c8bb829e553,
      type: 3}
  - m_RefCount: 1
    m_Data: {fileID: 146925484895311433, guid: fc584d329b77b9545b9c9c8bb829e553, type: 3}
  - m_RefCount: 1
    m_Data: {fileID: 3895720443503238059, guid: fc584d329b77b9545b9c9c8bb829e553,
      type: 3}
  - m_RefCount: 1
    m_Data: {fileID: -9019234469899804686, guid: fc584d329b77b9545b9c9c8bb829e553,
      type: 3}
  - m_RefCount: 1
    m_Data: {fileID: 3666724916130892037, guid: fc584d329b77b9545b9c9c8bb829e553,
      type: 3}
  - m_RefCount: 1
    m_Data: {fileID: 4557074923728586563, guid: fc584d329b77b9545b9c9c8bb829e553,
      type: 3}
  - m_RefCount: 1
    m_Data: {fileID: -4531858634233595940, guid: fc584d329b77b9545b9c9c8bb829e553,
      type: 3}
  - m_RefCount: 1
    m_Data: {fileID: -9185552814043747542, guid: fc584d329b77b9545b9c9c8bb829e553,
      type: 3}
  - m_RefCount: 1
    m_Data: {fileID: -8204820221692255543, guid: fc584d329b77b9545b9c9c8bb829e553,
      type: 3}
  - m_RefCount: 1
    m_Data: {fileID: -6233458931719022677, guid: fc584d329b77b9545b9c9c8bb829e553,
      type: 3}
  - m_RefCount: 1
    m_Data: {fileID: 1154340479819735195, guid: fc584d329b77b9545b9c9c8bb829e553,
      type: 3}
  - m_RefCount: 1
    m_Data: {fileID: 4778045797586685428, guid: fc584d329b77b9545b9c9c8bb829e553,
      type: 3}
  - m_RefCount: 1
    m_Data: {fileID: 6636356914981313421, guid: fc584d329b77b9545b9c9c8bb829e553,
      type: 3}
  - m_RefCount: 1
    m_Data: {fileID: 1686551188809007541, guid: fc584d329b77b9545b9c9c8bb829e553,
      type: 3}
  - m_RefCount: 1
    m_Data: {fileID: -5930776587842900371, guid: fc584d329b77b9545b9c9c8bb829e553,
      type: 3}
  - m_RefCount: 1
    m_Data: {fileID: -130104546997218819, guid: fc584d329b77b9545b9c9c8bb829e553,
      type: 3}
  - m_RefCount: 1
    m_Data: {fileID: -557614441817400054, guid: fc584d329b77b9545b9c9c8bb829e553,
      type: 3}
  - m_RefCount: 1
    m_Data: {fileID: -4356087948441045522, guid: fc584d329b77b9545b9c9c8bb829e553,
      type: 3}
  - m_RefCount: 1
    m_Data: {fileID: 2379953761323448013, guid: fc584d329b77b9545b9c9c8bb829e553,
      type: 3}
  - m_RefCount: 1
    m_Data: {fileID: -8392802036319243359, guid: fc584d329b77b9545b9c9c8bb829e553,
      type: 3}
  - m_RefCount: 1
    m_Data: {fileID: 3768474000973419263, guid: fc584d329b77b9545b9c9c8bb829e553,
      type: 3}
  - m_RefCount: 1
    m_Data: {fileID: -7876864015116417812, guid: fc584d329b77b9545b9c9c8bb829e553,
      type: 3}
  - m_RefCount: 1
    m_Data: {fileID: 2460501278191033764, guid: fc584d329b77b9545b9c9c8bb829e553,
      type: 3}
  - m_RefCount: 1
    m_Data: {fileID: 6516917985212256981, guid: fc584d329b77b9545b9c9c8bb829e553,
      type: 3}
  - m_RefCount: 1
    m_Data: {fileID: 2870588770018888475, guid: fc584d329b77b9545b9c9c8bb829e553,
      type: 3}
  - m_RefCount: 1
    m_Data: {fileID: 6172093022122347682, guid: fc584d329b77b9545b9c9c8bb829e553,
      type: 3}
  - m_RefCount: 1
    m_Data: {fileID: -4745629342412378363, guid: fc584d329b77b9545b9c9c8bb829e553,
      type: 3}
  - m_RefCount: 1
    m_Data: {fileID: -796906297672391504, guid: fc584d329b77b9545b9c9c8bb829e553,
      type: 3}
  - m_RefCount: 1
    m_Data: {fileID: 517537040645658821, guid: fc584d329b77b9545b9c9c8bb829e553, type: 3}
  - m_RefCount: 1
    m_Data: {fileID: 2348904716778239224, guid: fc584d329b77b9545b9c9c8bb829e553,
      type: 3}
  - m_RefCount: 1
    m_Data: {fileID: 6364211675350883068, guid: fc584d329b77b9545b9c9c8bb829e553,
      type: 3}
  - m_RefCount: 1
    m_Data: {fileID: -4506956802181919417, guid: fc584d329b77b9545b9c9c8bb829e553,
      type: 3}
  - m_RefCount: 1
    m_Data: {fileID: -8554552240816166350, guid: fc584d329b77b9545b9c9c8bb829e553,
      type: 3}
  - m_RefCount: 1
    m_Data: {fileID: 5155531445672774593, guid: fc584d329b77b9545b9c9c8bb829e553,
      type: 3}
  - m_RefCount: 1
    m_Data: {fileID: -8283946481429751769, guid: fc584d329b77b9545b9c9c8bb829e553,
      type: 3}
  - m_RefCount: 1
    m_Data: {fileID: 1437503401646794464, guid: fc584d329b77b9545b9c9c8bb829e553,
      type: 3}
  - m_RefCount: 1
    m_Data: {fileID: -8608529027667364052, guid: fc584d329b77b9545b9c9c8bb829e553,
      type: 3}
  - m_RefCount: 1
    m_Data: {fileID: -984624906782596688, guid: fc584d329b77b9545b9c9c8bb829e553,
      type: 3}
  - m_RefCount: 1
    m_Data: {fileID: -3935483887006374238, guid: fc584d329b77b9545b9c9c8bb829e553,
      type: 3}
  - m_RefCount: 1
    m_Data: {fileID: 9178892520020476994, guid: fc584d329b77b9545b9c9c8bb829e553,
      type: 3}
  - m_RefCount: 1
    m_Data: {fileID: -144014455013166516, guid: fc584d329b77b9545b9c9c8bb829e553,
      type: 3}
  - m_RefCount: 1
    m_Data: {fileID: -3253207453764529203, guid: fc584d329b77b9545b9c9c8bb829e553,
      type: 3}
  - m_RefCount: 1
    m_Data: {fileID: -7168242779200424501, guid: fc584d329b77b9545b9c9c8bb829e553,
      type: 3}
  - m_RefCount: 1
    m_Data: {fileID: -8219376919472097953, guid: fc584d329b77b9545b9c9c8bb829e553,
      type: 3}
  - m_RefCount: 1
    m_Data: {fileID: 5344690722283713150, guid: fc584d329b77b9545b9c9c8bb829e553,
      type: 3}
  - m_RefCount: 1
    m_Data: {fileID: 5394353238224683576, guid: fc584d329b77b9545b9c9c8bb829e553,
      type: 3}
  - m_RefCount: 1
    m_Data: {fileID: 8028931387866111178, guid: fc584d329b77b9545b9c9c8bb829e553,
      type: 3}
  - m_RefCount: 1
    m_Data: {fileID: 2961677793244026094, guid: fc584d329b77b9545b9c9c8bb829e553,
      type: 3}
  - m_RefCount: 1
    m_Data: {fileID: -2580880771318319752, guid: fc584d329b77b9545b9c9c8bb829e553,
      type: 3}
  - m_RefCount: 1
    m_Data: {fileID: -2266960901078078804, guid: fc584d329b77b9545b9c9c8bb829e553,
      type: 3}
  - m_RefCount: 1
    m_Data: {fileID: 4320056378629417345, guid: fc584d329b77b9545b9c9c8bb829e553,
      type: 3}
  m_TileMatrixArray:
  - m_RefCount: 144
    m_Data:
      e00: 1
      e01: 0
      e02: 0
      e03: 0
      e10: 0
      e11: 1
      e12: 0
      e13: 0
      e20: 0
      e21: 0
      e22: 1
      e23: 0
      e30: 0
      e31: 0
      e32: 0
      e33: 1
  m_TileColorArray:
  - m_RefCount: 144
    m_Data: {r: 1, g: 1, b: 1, a: 1}
  m_TileObjectToInstantiateArray: []
  m_AnimationFrameRate: 1
  m_Color: {r: 1, g: 1, b: 1, a: 1}
  m_Origin: {x: -5, y: -8, z: 0}
  m_Size: {x: 22, y: 11, z: 1}
  m_TileAnchor: {x: 0.5, y: 0.5, z: 0}
  m_TileOrientation: 0
  m_TileOrientationMatrix:
    e00: 1
    e01: 0
    e02: 0
    e03: 0
    e10: 0
    e11: 1
    e12: 0
    e13: 0
    e20: 0
    e21: 0
    e22: 1
    e23: 0
    e30: 0
    e31: 0
    e32: 0
    e33: 1
--- !u!483693784 &1047405867142313245
TilemapRenderer:
  m_ObjectHideFlags: 0
  m_CorrespondingSourceObject: {fileID: 0}
  m_PrefabInstance: {fileID: 0}
  m_PrefabAsset: {fileID: 0}
  m_GameObject: {fileID: 8686101424266189819}
  m_Enabled: 0
  m_CastShadows: 0
  m_ReceiveShadows: 0
  m_DynamicOccludee: 0
  m_MotionVectors: 1
  m_LightProbeUsage: 0
  m_ReflectionProbeUsage: 0
  m_RayTracingMode: 0
  m_RenderingLayerMask: 1
  m_RendererPriority: 0
  m_Materials:
  - {fileID: 10754, guid: 0000000000000000f000000000000000, type: 0}
  m_StaticBatchInfo:
    firstSubMesh: 0
    subMeshCount: 0
  m_StaticBatchRoot: {fileID: 0}
  m_ProbeAnchor: {fileID: 0}
  m_LightProbeVolumeOverride: {fileID: 0}
  m_ScaleInLightmap: 1
  m_ReceiveGI: 1
  m_PreserveUVs: 0
  m_IgnoreNormalsForChartDetection: 0
  m_ImportantGI: 0
  m_StitchLightmapSeams: 1
  m_SelectedEditorRenderState: 0
  m_MinimumChartSize: 4
  m_AutoUVMaxDistance: 0.5
  m_AutoUVMaxAngle: 89
  m_LightmapParameters: {fileID: 0}
  m_SortingLayerID: 0
  m_SortingLayer: 0
  m_SortingOrder: 0
  m_ChunkSize: {x: 32, y: 32, z: 32}
  m_ChunkCullingBounds: {x: 0, y: 0, z: 0}
  m_MaxChunkCount: 16
  m_MaxFrameAge: 16
  m_SortOrder: 0
  m_Mode: 0
  m_DetectChunkCullingBounds: 0
  m_MaskInteraction: 0
--- !u!114 &202354655722461022
MonoBehaviour:
  m_ObjectHideFlags: 0
  m_CorrespondingSourceObject: {fileID: 0}
  m_PrefabInstance: {fileID: 0}
  m_PrefabAsset: {fileID: 0}
  m_GameObject: {fileID: 0}
  m_Enabled: 1
  m_EditorHideFlags: 0
  m_Script: {fileID: 12395, guid: 0000000000000000e000000000000000, type: 0}
  m_Name: Palette Settings
  m_EditorClassIdentifier: 
  cellSizing: 0
